Text Analysis of Trump’s Tweets in 2016 with tidytext
…
In the following code chunk, we will comment what each line of code is doing.

## install.packages("tidytext")
library(tidytext)

tweet_words <- tweets |>
  filter(!str_detect(text, '^"')) |>
  mutate(text = str_replace_all(text, "https://t.co/[A-Za-z\\d]+|&amp;", "")) |>
  unnest_tokens(word, text) |>
  anti_join(stop_words, by = c("word" = "word")) |>
  filter(str_detect(word, "[a-z]"))

tweet_words

# A tibble: 8,825 × 4
   id                 source  created             word        
   <chr>              <chr>   <dttm>              <chr>       
 1 762669882571980801 Android 2016-08-08 15:20:44 economic    
 2 762669882571980801 Android 2016-08-08 15:20:44 policy      
 3 762669882571980801 Android 2016-08-08 15:20:44 speech      
 4 762669882571980801 Android 2016-08-08 15:20:44 carried     
 5 762669882571980801 Android 2016-08-08 15:20:44 live        
 6 762669882571980801 Android 2016-08-08 15:20:44 p.m         
 7 762669882571980801 Android 2016-08-08 15:20:44 enjoy       
 8 762641595439190016 iPhone  2016-08-08 13:28:20 join        
 9 762641595439190016 iPhone  2016-08-08 13:28:20 fayetteville
10 762641595439190016 iPhone  2016-08-08 13:28:20 north       
# … with 8,815 more rows
…
What are some patterns you can discern from the types of words that more frequently on the Android account compared to the iPhone account?

Sentiment analysis

Since we’ve observed a difference in sentiment between the Android and iPhone tweets, let’s try quantifying it. We’ll work with the NRC Word-Emotion Association lexicon, available from the tidytext package, which associates words with 10 sentiments: positive, negative, anger, anticipation, disgust, fear, joy, sadness, surprise, and trust.

## install.packages("textdata")
library(textdata)
sentiment_df <- get_sentiments("nrc")
nrc <- sentiment_df |>
  dplyr::select(word, sentiment)
nrc

# A tibble: 13,875 × 2
   word        sentiment
   <chr>       <chr>    
 1 abacus      trust    
 2 abandon     fear     
 3 abandon     negative 
 4 abandon     sadness  
 5 abandoned   anger    
 6 abandoned   fear     
 7 abandoned   negative 
 8 abandoned   sadness  
 9 abandonment anger    
10 abandonment fear     
# … with 13,865 more rows
…
