Text Data Solutions
…
library(tidytext)
beyonce_unnest <- beyonce |> unnest_tokens(output = "word", input = "line")
beyonce_unnest <- beyonce_unnest |> mutate(word = str_to_lower(word))

beyonce_stop <- anti_join(beyonce_unnest, stop_words, by = c("word" = "word"))

beyonce_sum <- beyonce_stop |> group_by(word) |>
  summarise(n = n()) |>
  arrange(desc(n)) |>
  print(n = 25)

# A tibble: 5,937 × 2
   word        n
   <chr>   <int>
 1 love     1362
 2 baby     1024
 3 girl      592
 4 wanna     564
 5 hey       499
 6 boy       494
 7 yeah      491
 8 feel      488
 9 time      452
10 uh        408
11 halo      383
12 check     366
13 tonight   342
14 girls     341
15 ya        327
16 run       325
17 crazy     308
18 world     301
19 body      287
20 ooh       281
21 ladies    269
22 top       241
23 gotta     240
24 beyoncé   238
25 night     213
# … with 5,912 more rows

Exercise 1.

more_stop_df <- tibble::tibble(word = c("ooh", "gotta", "ya", "uh", "yeah"))
anti_join(beyonce_sum, more_stop_df)

# A tibble: 5,932 × 2
   word      n
   <chr> <int>
 1 love   1362
 2 baby   1024
 3 girl    592
 4 wanna   564
 5 hey     499
 6 boy     494
 7 feel    488
 8 time    452
 9 halo    383
10 check   366
# … with 5,922 more rows
…
Exercise 4. Use str_detect() and the dplyr functions mutate() and case_when() to create a variable for serve_location that is either "wide" if the point starts with a 4, "body" if the point starts with a 5, and "down the center" if the point starts with a 6.

med_djok_df <- read_csv(here("data/med_djok.csv"))
med_djok_df |>
  mutate(serve_location = case_when(str_detect(point, "^4") ~ "wide",
                                    str_detect(point, "^5") ~ "body",
                                    str_detect(point, "^6") ~ "down the center")) |>
  relocate(serve_location)

# A tibble: 182 × 47
   serve…¹ point Serving match…²    Pt  Set1  Set2   Gm1   Gm2 Pts   `Gm#` TbSet
   <chr>   <chr> <chr>   <chr>   <dbl> <dbl> <dbl> <dbl> <dbl> <chr> <chr> <dbl>
 1 wide    4f2d@ ND      202109…     1     0     0     0     0 0-0   1 (1)     1
 2 down t… 6d    ND      202109…     2     0     0     0     0 15-0  1 (2)     1
 3 down t… 6b29… ND      202109…     3     0     0     0     0 15-15 1 (3)     1
 4 wide    4b28… ND      202109…     4     0     0     0     0 30-15 1 (4)     1
 5 body    5b37… ND      202109…     5     0     0     0     0 40-15 1 (5)     1
 6 down t… 6f28… ND      202109…     6     0     0     0     0 40-30 1 (6)     1
 7 wide    4f18… ND      202109…     7     0     0     0     0 40-40 1 (7)     1
 8 body    5b28… ND      202109…     8     0     0     0     0 40-AD 1 (8)     1
 9 down t… 6s28… DM      202109…     9     0     0     0     1 0-0   2 (1)     1
10 down t… 6*    DM      202109…    10     0     0     0     1 15-0  2 (2)     1
# … with 172 more rows, 35 more variables: `TB?` <dbl>, TBpt <lgl>, Svr <dbl>,
#   Ret <dbl>, `1st` <chr>, `2nd` <chr>, Notes <chr>, `1stSV` <dbl>,
#   `2ndSV` <dbl>, `1stIn` <dbl>, `2ndIn` <dbl>, isAce <lgl>, isUnret <lgl>,
#   isRallyWinner <lgl>, isForced <lgl>, isUnforced <lgl>, isDouble <lgl>,
#   PtWinner <dbl>, isSvrWinner <dbl>, rallyCount <dbl>, `Player 1` <chr>,
#   `Player 2` <chr>, `Pl 1 hand` <chr>, `Pl 2 hand` <chr>, Gender <chr>,
#   Date <dbl>, Tournament <chr>, Round <lgl>, Time <chr>, Court <chr>, …
