DATA / STAT 234 - 3 Wrangling with dplyr
…
Explain what the pipe operator |> does and explain when you can and cannot use the pipe operator.

Combine the above goals with plotting to explore the babynames data set.

3.1 filter(),slice(), select(), arrange(), and Piping

Throughout this chapter, we will use the babynames data set in the babynames R package. To begin, install the babynames package by typing install.packages("babynames") in your bottom-left console window, and then load the babynames package in with

library(babynames)

Read about the data set by typing ?babynames in your bottom-left window of R Studio. We see that this data set contains baby name data provided by the SSA in the United States dating back to 1880:

babynames
#> # A tibble: 1,924,665 × 5
#>    year sex   name          n   prop
#>   <dbl> <chr> <chr>     <int>  <dbl>
#> 1  1880 F     Mary       7065 0.0724
#> 2  1880 F     Anna       2604 0.0267
#> 3  1880 F     Emma       2003 0.0205
#> 4  1880 F     Elizabeth  1939 0.0199
#> 5  1880 F     Minnie     1746 0.0179
#> 6  1880 F     Margaret   1578 0.0162
#> # ℹ 1,924,659 more rows
…
Exercise 3. Use filter() to only keep rows in babynames with your name from Exercise 1 and that have a year from 2000 onward.

Hint (only if you get stuck)

You will need to use the & Boolean operator to combine your conditions from the previous two exercises.

Exercise 4. Use slice() to keep the first 20 rows of babynames.

3.1.2 arrange(): Ordering Rows

The arrange() function allows us to order rows in the data set using one or more variables. The function is very straightforward: we only need to provide the name of the variable that we want to order by. For example,

babynames |> arrange(n)
#> # A tibble: 1,924,665 × 5
#>    year sex   name          n      prop
#>   <dbl> <chr> <chr>     <int>     <dbl>
#> 1  1880 F     Adelle        5 0.0000512
#> 2  1880 F     Adina         5 0.0000512
#> 3  1880 F     Adrienne      5 0.0000512
#> 4  1880 F     Albertine     5 0.0000512
#> 5  1880 F     Alys          5 0.0000512
#> 6  1880 F     Ana           5 0.0000512
#> # ℹ 1,924,659 more rows

orders the babynames data so that n, the number of babies, goes from smallest to largest. If we want to arrange() by descending order of a variable, we just wrap the name of the variable we are ordering by with desc() for “descending:”

babynames |> arrange(desc(n))
#> # A tibble: 1,924,665 × 5
#>    year sex   name        n   prop
#>   <dbl> <chr> <chr>   <int>  <dbl>
#> 1  1947 F     Linda   99686 0.0548
#> 2  1948 F     Linda   96209 0.0552
#> 3  1947 M     James   94756 0.0510
#> 4  1957 M     Michael 92695 0.0424
#> 5  1947 M     Robert  91642 0.0493
#> 6  1949 F     Linda   91016 0.0518
#> # ℹ 1,924,659 more rows

Exercise 5. Use arrange() to sort the data frame so that it is in descending order by the prop variable. This allows us to examine the names with the highest proportion of babies given that name for that given year.

Exercise 6. Use arrange() on the categorical variable name. What does arrange() seem to do on a categorical variable?

3.1.3 select(): Choosing Columns

We might also be interested in getting rid of some of the columns in a data set. One reason to do this is if there are an overwhelming (30+) columns in a data set, but we know that we just need a few of them. The easiest way to use select() is to just input the names of the columns that you want to keep. For example, if we were only interested in the name and n variables, we could make a data frame with only those variables with:

babynames |> select(name, n)
#> # A tibble: 1,924,665 × 2
#>   name          n
#>   <chr>     <int>
#> 1 Mary       7065
#> 2 Anna       2604
#> 3 Emma       2003
#> 4 Elizabeth  1939
#> 5 Minnie     1746
#> 6 Margaret   1578
#> # ℹ 1,924,659 more rows

We might also want to use select() to get rid of one or more columns. If this is the case, we denote any column you want to get rid of with -. For example, we might want to get rid of the sex column and the prop column with

babynames |> select(-sex, -prop)
#> # A tibble: 1,924,665 × 3
#>    year name          n
#>   <dbl> <chr>     <int>
#> 1  1880 Mary       7065
#> 2  1880 Anna       2604
#> 3  1880 Emma       2003
#> 4  1880 Elizabeth  1939
#> 5  1880 Minnie     1746
#> 6  1880 Margaret   1578
#> # ℹ 1,924,659 more rows

select() comes with many useful helper functions, but these are oftentimes not needed. One of the helper functions that is actually often useful is everything(), which selects all columns in a data frame. This can be used to help re-order columns if you have a particular column that you want to appear first:

babynames |> select(name, everything())
#> # A tibble: 1,924,665 × 5
#>   name       year sex       n   prop
#>   <chr>     <dbl> <chr> <int>  <dbl>
#> 1 Mary       1880 F      7065 0.0724
#> 2 Anna       1880 F      2604 0.0267
#> 3 Emma       1880 F      2003 0.0205
#> 4 Elizabeth  1880 F      1939 0.0199
#> 5 Minnie     1880 F      1746 0.0179
#> 6 Margaret   1880 F      1578 0.0162
#> # ℹ 1,924,659 more rows

The previous line of code puts name as the first variable in the data frame.

Note

For data frames with only a few columns, re-ordering the columns is generally not that useful, but, for data frames with hundreds or thousands of columns, moving variables of interest to the beginning of the data frame helps us view these variables more readily.

Exercise 7. Use select() to keep only the year, name and prop variables in two ways: (1) keep year, name, and prop directly by specifying these variable names in select() and (2) keep only year, name, and prop indirectly by specifying that sex, and n should be dropped from the data frame.

3.1.4 Assigning a Data Frame a Name

Up until now, we have not assigned any of the new data frames we are creating a name. For example, with

babynames |> filter(name == "Matthew")
#> # A tibble: 212 × 5
#>    year sex   name        n     prop
#>   <dbl> <chr> <chr>   <int>    <dbl>
#> 1  1880 M     Matthew   113 0.000954
#> 2  1881 M     Matthew    80 0.000739
#> 3  1882 M     Matthew   109 0.000893
#> 4  1883 M     Matthew    86 0.000765
#> 5  1884 M     Matthew   117 0.000953
#> 6  1885 M     Matthew   111 0.000957
#> # ℹ 206 more rows

we get a printout of the data with only the name Matthew, but, the data frame object is not assigned a name at all. So, we cannot use ggplot() to make a plot of n only for the name Matthew because we do not have a named data set that only has the name Matthew. In other words, R performs the filter(), but the filtered data frame doesn’t get saved to any particular named object. If we want to “save” the new data set for future use (like in a plot command), then we can use the assignment operator, <-:

babynames_matthew <- babynames |> filter(name == "Matthew")

In the previous chunk, we assign the data frame with only Matthew names to the name babynames_matthew:

babynames_matthew
#> # A tibble: 212 × 5
#>    year sex   name        n     prop
#>   <dbl> <chr> <chr>   <int>    <dbl>
#> 1  1880 M     Matthew   113 0.000954
#> 2  1881 M     Matthew    80 0.000739
#> 3  1882 M     Matthew   109 0.000893
#> 4  1883 M     Matthew    86 0.000765
#> 5  1884 M     Matthew   117 0.000953
#> 6  1885 M     Matthew   111 0.000957
#> # ℹ 206 more rows
…
It might also help to use an analogy when thinking about piping. Consider the Ke$ha’s morning routine in the opening of the song Tik Tok. If we were to write her morning routine in terms of piping,

kesha |> wake_up(time = "morning", feels_like = "P-Diddy") |>
  grab(glasses) |>
  brush(teeth, item = "jack", unit = "bottle") |> ....

Kesha first wakes up in the morning, and then the Kesha that has woken up grabs her glasses, and then the Kesha who has woken up and has grabbed her glasses proceeds to brush her teeth, etc.

The pipe operator |> is loaded automatically with R. We will heavily use the pipe throughout the entire semester so it’s worth it to delve a little deeper into what it is here. We will use the fitness data to further explore the pipe. Read in the data with

fitness_df <- read_csv("https://raw.githubusercontent.com/highamm/ds234_quarto/main/data_online/higham_fitness_clean.csv",
                       col_types = list(stepgoal = col_factor()))
fitness_df
#> # A tibble: 1,722 × 9
#>   Start      active_cals distance flights  steps month weekday dayofyear
#>   <date>           <dbl>    <dbl>   <dbl>  <dbl> <chr> <chr>       <dbl>
#> 1 2018-11-28        57.8    0.930       0  1885. Nov   Wed           332
#> 2 2018-11-29       509.     4.64       18  8953. Nov   Thu           333
#> 3 2018-11-30       599.     6.05       12 11665  Nov   Fri           334
#> 4 2018-12-01       661.     6.80        6 12117  Dec   Sat           335
#> 5 2018-12-02       527.     4.61        1  8925. Dec   Sun           336
#> 6 2018-12-03       550.     3.96        2  7205  Dec   Mon           337
#> # ℹ 1,716 more rows
#> # ℹ 1 more variable: stepgoal <fct>

Thus far, we have used a single pipe |> to do one task, but, we can string together multiple dplyr functions with multiple |> statements. For example, suppose that we wanted to keep only the weekdays that were Sat and Sun, and then, order the data set so that it was in descending order of steps taken:

fitness_df |> filter(weekday == "Sat" | weekday == "Sun") |>
  arrange(desc(steps))
#> # A tibble: 492 × 9
#>   Start      active_cals distance flights  steps month weekday dayofyear
#>   <date>           <dbl>    <dbl>   <dbl>  <dbl> <chr> <chr>       <dbl>
#> 1 2023-07-15       2291.     18.0     193 32589. Jul   Sat           196
#> 2 2019-08-11       1385.     15.8     173 29480. Aug   Sun           223
#> 3 2019-04-14       1767.     17.9       1 25578  Apr   Sun           104
#> 4 2018-12-15       1091.     11.2      27 21224. Dec   Sat           349
#> 5 2022-05-29       1291.     11.8     103 20853  May   Sun           149
#> 6 2019-02-10       1392.     12.8       5 20700. Feb   Sun            41
#> # ℹ 486 more rows
#> # ℹ 1 more variable: stepgoal <fct>

This reads: “take fitness_df and then filter() it to keep only Saturdays and Sundays and then sort it in descending order of steps.”

Important

Consecutive pipes build on each other: we can slowly build out what the pipe is doing step-by-step. Running code “pipe by pipe” can be a very helpful way to understand what each consecutive piping statement is doing.

The code

fitness_df |> filter(weekday == "Sat" | weekday == "Sun")
#> # A tibble: 492 × 9
#>   Start      active_cals distance flights  steps month weekday dayofyear
#>   <date>           <dbl>    <dbl>   <dbl>  <dbl> <chr> <chr>       <dbl>
#> 1 2018-12-01        661.     6.80       6 12117  Dec   Sat           335
#> 2 2018-12-02        527.     4.61       1  8925. Dec   Sun           336
#> 3 2018-12-08        775.     6.46       0  8834. Dec   Sat           342
#> 4 2018-12-09        341.     2.81       0  5265  Dec   Sun           343
#> 5 2018-12-15       1091.    11.2       27 21224. Dec   Sat           349
#> 6 2018-12-16       1029.     8.84      79 16376  Dec   Sun           350
#> # ℹ 486 more rows
#> # ℹ 1 more variable: stepgoal <fct>

is equivalent to:

filter(fitness_df, weekday == "Sat" | weekday == "Sun")
#> # A tibble: 492 × 9
#>   Start      active_cals distance flights  steps month weekday dayofyear
#>   <date>           <dbl>    <dbl>   <dbl>  <dbl> <chr> <chr>       <dbl>
#> 1 2018-12-01        661.     6.80       6 12117  Dec   Sat           335
#> 2 2018-12-02        527.     4.61       1  8925. Dec   Sun           336
#> 3 2018-12-08        775.     6.46       0  8834. Dec   Sat           342
#> 4 2018-12-09        341.     2.81       0  5265  Dec   Sun           343
#> 5 2018-12-15       1091.    11.2       27 21224. Dec   Sat           349
#> 6 2018-12-16       1029.     8.84      79 16376  Dec   Sun           350
#> # ℹ 486 more rows
#> # ℹ 1 more variable: stepgoal <fct>

Then,

filter(fitness_df, weekday == "Sat" | weekday == "Sun") |>
  arrange(desc(steps))
#> # A tibble: 492 × 9
#>   Start      active_cals distance flights  steps month weekday dayofyear
#>   <date>           <dbl>    <dbl>   <dbl>  <dbl> <chr> <chr>       <dbl>
#> 1 2023-07-15       2291.     18.0     193 32589. Jul   Sat           196
#> 2 2019-08-11       1385.     15.8     173 29480. Aug   Sun           223
#> 3 2019-04-14       1767.     17.9       1 25578  Apr   Sun           104
#> 4 2018-12-15       1091.     11.2      27 21224. Dec   Sat           349
#> 5 2022-05-29       1291.     11.8     103 20853  May   Sun           149
#> 6 2019-02-10       1392.     12.8       5 20700. Feb   Sun            41
#> # ℹ 486 more rows
#> # ℹ 1 more variable: stepgoal <fct>

is equivalent to:

arrange(filter(fitness_df, weekday == "Sat" | weekday == "Sun"),
        desc(steps))
#> # A tibble: 492 × 9
#>   Start      active_cals distance flights  steps month weekday dayofyear
#>   <date>           <dbl>    <dbl>   <dbl>  <dbl> <chr> <chr>       <dbl>
#> 1 2023-07-15       2291.     18.0     193 32589. Jul   Sat           196
#> 2 2019-08-11       1385.     15.8     173 29480. Aug   Sun           223
#> 3 2019-04-14       1767.     17.9       1 25578  Apr   Sun           104
#> 4 2018-12-15       1091.     11.2      27 21224. Dec   Sat           349
#> 5 2022-05-29       1291.     11.8     103 20853  May   Sun           149
#> 6 2019-02-10       1392.     12.8       5 20700. Feb   Sun            41
#> # ℹ 486 more rows
#> # ℹ 1 more variable: stepgoal <fct>
…
But it throws us an error. Typing in ?lm reveals that its first argument is a formula to fit the model, not a data set. So the function is trying to run

lm(fitness_df, active_cals ~ steps)
#> Error in as.data.frame.default(data): cannot coerce class '"formula"' to a data.frame

which doesn’t work because the arguments to the function are mixed up (the formula should appear first and the data set should appear second).

Note

The pipe operator |> is relatively new. Previously, the primary pipe operator used was %>% and came from the magrittr package. For almost all cases, the two operators are equivalent. However, when scanning the Internet for help with code, you will probably see %>% used in many of people’s responses on sites like StackOverflow.

Exercise 9. This “More About the Pipe” section will make more sense as we proceed through the course. For now, we just want to be able to understand that something like df |> slice(1:6) is equivalent to slice(df, 1:6). Practice by converting the following code to use the pipe:

filter(fitness_df, active_cals > 50)
#> # A tibble: 1,690 × 9
#>   Start      active_cals distance flights  steps month weekday dayofyear
#>   <date>           <dbl>    <dbl>   <dbl>  <dbl> <chr> <chr>       <dbl>
#> 1 2018-11-28        57.8    0.930       0  1885. Nov   Wed           332
#> 2 2018-11-29       509.     4.64       18  8953. Nov   Thu           333
#> 3 2018-11-30       599.     6.05       12 11665  Nov   Fri           334
#> 4 2018-12-01       661.     6.80        6 12117  Dec   Sat           335
#> 5 2018-12-02       527.     4.61        1  8925. Dec   Sun           336
#> 6 2018-12-03       550.     3.96        2  7205  Dec   Mon           337
#> # ℹ 1,684 more rows
#> # ℹ 1 more variable: stepgoal <fct>
…
Throughout this section, we will use a data set that contains observations for each of SLU’s majors, with three variables per major:

Major, the name of the major.

nfemales, the number of female graduates in that major from 2017 - 2021.

nmales, the number of male graduates in that major from 2017 - 2021.

Begin by reading in the data set with

library(tidyverse)
slumajors_df <- read_csv("https://raw.githubusercontent.com/highamm/ds234_quarto/main/data_online/SLU_Majors_17_21.csv")
slumajors_df
#> # A tibble: 30 × 3
#>   Major                        nfemales nmales
#>   <chr>                           <dbl>  <dbl>
#> 1 Anthropology                       35     13
#> 2 Art & Art History                  62     11
#> 3 Biochemistry                       15      6
#> 4 Biology                           152     58
#> 5 Business in the Liberal Arts      192    301
#> 6 Chemistry                          28     20
#> # ℹ 24 more rows
…
R understands the following symbols:

+ for addition, - for subtraction

* for multiplication, / for division

^ for raising something to a power (3 ^ 2 is equal to 9)

R also does the same order of operations as usual: parentheses, then exponents, then multiplication and division, then addition and subtraction.

For example, suppose that we want to create a variable in slumajors_df that has the total number of students graduating in each major. We can do this with mutate():

slumajors_df |> mutate(ntotal = nfemales + nmales)
#> # A tibble: 30 × 4
#>   Major                        nfemales nmales ntotal
#>   <chr>                           <dbl>  <dbl>  <dbl>
#> 1 Anthropology                       35     13     48
#> 2 Art & Art History                  62     11     73
#> 3 Biochemistry                       15      6     21
#> 4 Biology                           152     58    210
#> 5 Business in the Liberal Arts      192    301    493
#> 6 Chemistry                          28     20     48
#> # ℹ 24 more rows
…
Take slumajors_df and with slumajors_df,

perform a mutate() step to create the new variable called ntotal, which is nfemales plus nmales.

Since this is our first time using mutate(), let’s also delve into what the function is doing. In general, mutate() reads:

mutate(name_of_new_variable = operations_on_old_variables).

R just automatically assumes that you want to do the operation for every single row in the data set, which is often quite convenient!

We might also want to create a variable that is the percentage of students identifying as female for each major:

slumajors_df |>
  mutate(percfemale = 100 * nfemales / (nfemales + nmales))
#> # A tibble: 30 × 4
#>   Major                        nfemales nmales percfemale
#>   <chr>                           <dbl>  <dbl>      <dbl>
#> 1 Anthropology                       35     13       72.9
#> 2 Art & Art History                  62     11       84.9
#> 3 Biochemistry                       15      6       71.4
#> 4 Biology                           152     58       72.4
#> 5 Business in the Liberal Arts      192    301       38.9
#> 6 Chemistry                          28     20       58.3
#> # ℹ 24 more rows
…
if_else() if your new variable is created on only one condition

case_when() if your new variable is created on more than one condition

Important

The conditions that we supply use the same syntax as the conditions we used with filter(). For example, we still use the same Boolean operators (& for “and” and | for “or”, etc.).

Suppose we want to create a new variable that tells us whether or not the Major has a majority of Women. That is, we want this new variable, morewomen to be "Yes" if the Major has more than 50% women and "No" if it has 50% or less.

slumajors_df |> mutate(morewomen = if_else(percfemale > 50,
                                            true = "Yes",
                                            false = "No"))
#> # A tibble: 30 × 6
#>   Major                        nfemales nmales percfemale ntotal morewomen
#>   <chr>                           <dbl>  <dbl>      <dbl>  <dbl> <chr>    
#> 1 Anthropology                       35     13       72.9     48 Yes      
#> 2 Art & Art History                  62     11       84.9     73 Yes      
#> 3 Biochemistry                       15      6       71.4     21 Yes      
#> 4 Biology                           152     58       72.4    210 Yes      
#> 5 Business in the Liberal Arts      192    301       38.9    493 No       
#> 6 Chemistry                          28     20       58.3     48 Yes      
#> # ℹ 24 more rows
…
