…
And we're stuck. It's certainly not impossible to make the graph with the data in its current form (keep adding `geom_point()` and re-specifying the aesthetics, then manually specify colours, then manually specify a legend), but it's definitely a huge pain. 

This is where `pivot_longer()` can help! <a href="https://www.youtube.com/watch?v=8w3wmQAMoxQ" target="_blank">https://www.youtube.com/watch?v=8w3wmQAMoxQ</a>

### `pivot_longer()` to Gather Columns

`pivot_longer()` "pivots" the data set so that is has more rows (hence the "longer") by collapsing multiple columns into two columns. One new column is a "key" column, which is the new variable containing the old data set's column names. The second new column is a "value" column, which is the new variable containing the old data set's values for each of the old data set's column names. It's easier to see this with an example. We know from our plotting exercise above that we'd really like a `candidate` variable to colour by and a `poll_percent` variable for the y-axis of our plot. So, we can use `pivot_longer()` to make these two columns:


```r
polls_clean |>
  pivot_longer(cols = c(Clinton_D, Trump_R, Johnson_L, Stein_G),
               names_to = "candidate", values_to = "poll_percent")
#> # A tibble: 28 × 8
#>    Poll    Start End   Sampl…¹ Sampl…²   MoE candi…³ poll_…⁴
#>    <chr>   <chr> <chr> <chr>   <chr>   <dbl> <chr>     <dbl>
#>  1 Monmou… 7/14  7/16  688     LV        3.7 Clinto…      45
#>  2 Monmou… 7/14  7/16  688     LV        3.7 Trump_R      43
#>  3 Monmou… 7/14  7/16  688     LV        3.7 Johnso…       5
#>  4 Monmou… 7/14  7/16  688     LV        3.7 Stein_G       1
#>  5 CNN/ORC 7/13  7/16  872     RV        3.5 Clinto…      42
#>  6 CNN/ORC 7/13  7/16  872     RV        3.5 Trump_R      37
#>  7 CNN/ORC 7/13  7/16  872     RV        3.5 Johnso…      13
#>  8 CNN/ORC 7/13  7/16  872     RV        3.5 Stein_G       5
#>  9 ABC Ne… 7/11  7/14  816     RV        4   Clinto…      42
#> 10 ABC Ne… 7/11  7/14  816     RV        4   Trump_R      38
#> # … with 18 more rows, and abbreviated variable names
#> #   ¹​Sample_size, ²​Sample_type, ³​candidate, ⁴​poll_percent
#> # ℹ Use `print(n = ...)` to see more rows
```
…
etc.

Let's start with `pivot_longer()` to see if we can get year to be its own variable (We know that a year variable, which is what we want, will make more rows so `pivot_longer()` seems like a good place to start):


```r
airlines |>
  pivot_longer(c(3, 4, 5, 6, 7, 8), names_to = "type_year",
  values_to = "total_num") 
#> # A tibble: 336 × 4
#>    airline    avail_seat_km_per_week type_year       total…¹
#>    <chr>                       <dbl> <chr>             <dbl>
#>  1 Aer Lingus              320906734 incidents 1985…       2
#>  2 Aer Lingus              320906734 fatal_accident…       0
#>  3 Aer Lingus              320906734 fatalities 198…       0
#>  4 Aer Lingus              320906734 incidents 2000…       0
#>  5 Aer Lingus              320906734 fatal_accident…       0
#>  6 Aer Lingus              320906734 fatalities 200…       0
#>  7 Aeroflot*              1197672318 incidents 1985…      76
#>  8 Aeroflot*              1197672318 fatal_accident…      14
#>  9 Aeroflot*              1197672318 fatalities 198…     128
#> 10 Aeroflot*              1197672318 incidents 2000…       6
#> # … with 326 more rows, and abbreviated variable name
#> #   ¹​total_num
#> # ℹ Use `print(n = ...)` to see more rows
```

Instead of giving `pivot_longer()` names of variables, we gave it the column numbers instead. So `c(3, 4, 5, 6, 7, 8)` corresponds to the 3rd, 4th, ...., 8th columns in the data set. That didn't quite give us a `year` variable, but we should be excited to see an opportunity to take advantage of `separate()`:


```r
airlines |> pivot_longer(c(3, 4, 5, 6, 7, 8), names_to = "type_year",
                          values_to = "total_num") |>
  separate(type_year, into = c("type", "year"), sep = " ")
#> # A tibble: 336 × 5
#>    airline    avail_seat_km_per_week type      year  total…¹
#>    <chr>                       <dbl> <chr>     <chr>   <dbl>
#>  1 Aer Lingus              320906734 incidents 1985…       2
#>  2 Aer Lingus              320906734 fatal_ac… 1985…       0
#>  3 Aer Lingus              320906734 fataliti… 1985…       0
#>  4 Aer Lingus              320906734 incidents 2000…       0
#>  5 Aer Lingus              320906734 fatal_ac… 2000…       0
#>  6 Aer Lingus              320906734 fataliti… 2000…       0
#>  7 Aeroflot*              1197672318 incidents 1985…      76
#>  8 Aeroflot*              1197672318 fatal_ac… 1985…      14
#>  9 Aeroflot*              1197672318 fataliti… 1985…     128
#> 10 Aeroflot*              1197672318 incidents 2000…       6
#> # … with 326 more rows, and abbreviated variable name
#> #   ¹​total_num
#> # ℹ Use `print(n = ...)` to see more rows
```
Is this the format that we want the data set to be in? Depending on the task, it could be. But, we also might want each of the accident `type`s to be its own variable. That is, we might want to collapse the data set to have a variable for `incidents`, a variable for `fatal_accidents`, and a variable for `fatalities`. If so, we want to add more columns to the data set, so we need to use `pivot_wider()`. 


```r
## name the long data set
airlines_long <- airlines |>
  pivot_longer(c(3, 4, 5, 6, 7, 8), names_to = "type_year",
               values_to = "total_num") |>
  separate(type_year, into = c("type", "year"), sep = " ")

## use pivot_wider() to create variables for incidents, fatalities, and
## fatal_accidents:
airlines_long |> pivot_wider(names_from = type,
                              values_from = total_num)
#> # A tibble: 112 × 6
#>    airline             avail…¹ year  incid…² fatal…³ fatal…⁴
#>    <chr>                 <dbl> <chr>   <dbl>   <dbl>   <dbl>
#>  1 Aer Lingus           3.21e8 1985…       2       0       0
#>  2 Aer Lingus           3.21e8 2000…       0       0       0
#>  3 Aeroflot*            1.20e9 1985…      76      14     128
#>  4 Aeroflot*            1.20e9 2000…       6       1      88
#>  5 Aerolineas Argenti…  3.86e8 1985…       6       0       0
#>  6 Aerolineas Argenti…  3.86e8 2000…       1       0       0
#>  7 Aeromexico*          5.97e8 1985…       3       1      64
#>  8 Aeromexico*          5.97e8 2000…       5       0       0
#>  9 Air Canada           1.87e9 1985…       2       0       0
#> 10 Air Canada           1.87e9 2000…       2       0       0
#> # … with 102 more rows, and abbreviated variable names
#> #   ¹​avail_seat_km_per_week, ²​incidents, ³​fatal_accidents,
#> #   ⁴​fatalities
#> # ℹ Use `print(n = ...)` to see more rows
```
…
You'll need to add something to your `pivot_longer()` function to convert the variable `Year` to numeric. We haven't talked too much about variable types yet so, after your `values_to = "Mortality"` statement, add `, names_transform = list(Year = as.numeric)`, making sure you have a second `)` to close the `pivot_longer()` function.

### Chapter Exercises S {#chapexercise-4-S}

2. \* Use a function in `tidyr` to make the data tidy, and give your tidy data set a new name.


```r
nfl_long <- nfl_df |>
  pivot_longer(c(2, 3, 4, 5, 6, 7, 8, 9, 10, 11),
               names_to = "position", values_to = "salary")
nfl_long
#> # A tibble: 8,000 × 3
#>     year position            salary
#>    <dbl> <chr>                <dbl>
#>  1  2011 Cornerback        11265916
#>  2  2011 Defensive Lineman 17818000
#>  3  2011 Linebacker        16420000
#>  4  2011 Offensive Lineman 15960000
#>  5  2011 Quarterback       17228125
#>  6  2011 Running Back      12955000
#>  7  2011 Safety             8871428
#>  8  2011 Special Teamer     4300000
#>  9  2011 Tight End          8734375
#> 10  2011 Wide Receiver     16250000
#> # … with 7,990 more rows
#> # ℹ Use `print(n = ...)` to see more rows
```
…
