DATA / STAT 234 - 6 Tidying with tidyr
…
values in the data set should not contain units

there should not be any table headers or footnotes

We will begin by focusing on the first characteristic: every variable in a the data set should be stored in its own column (and correspondingly, number 3: each value of a variable should be stored in one cell).

6.2 separate() and unite() Columns

In a fresh .qmd file (File -> New File -> Quarto) that is in your Notes project, copy and paste the following code into an R chunk:

library(tidyverse)
library(here)
polls <- read_csv(here("data/rcp-polls.csv"), na = "--")
polls
#> # A tibble: 7 × 8
#>   Poll             Date  Sample   MoE `Clinton (D)` `Trump (R)` `Johnson (L)`
#>   <chr>            <chr> <chr>  <dbl>         <dbl>       <dbl>         <dbl>
#> 1 Monmouth         7/14… 688 LV   3.7            45          43             5
#> 2 CNN/ORC          7/13… 872 RV   3.5            42          37            13
#> 3 ABC News/Wash P… 7/11… 816 RV   4              42          38             8
#> 4 NBC News/Wall S… 7/9 … 1000 …   3.1            41          35            11
#> 5 Economist/YouGov 7/9 … 932 RV   4.5            40          37             5
#> 6 Associated Pres… 7/7 … 837 RV  NA              40          36             6
#> # ℹ 1 more row
#> # ℹ 1 more variable: `Stein (G)` <dbl>
…
polls |> summarise(meansample = mean(Sample))

What warning do you get? Why?

You would get a similar warning (or sometimes an error) any time that you want to try to use Sample size in plotting or summaries. The issue is that the Sample column actually contains two variables so the data set is not tidy.

6.2.1 separate() a Column

Let’s separate() the Sample column into Sample_size and Sample_type:

polls |>
  separate(col = Sample, into = c("Sample_size", "Sample_type"), 
           sep = " ")
#> # A tibble: 7 × 9
#>   Poll          Date  Sample_size Sample_type   MoE `Clinton (D)` `Trump (R)`
#>   <chr>         <chr> <chr>       <chr>       <dbl>         <dbl>       <dbl>
#> 1 Monmouth      7/14… 688         LV            3.7            45          43
#> 2 CNN/ORC       7/13… 872         RV            3.5            42          37
#> 3 ABC News/Was… 7/11… 816         RV            4              42          38
#> 4 NBC News/Wal… 7/9 … 1000        RV            3.1            41          35
#> 5 Economist/Yo… 7/9 … 932         RV            4.5            40          37
#> 6 Associated P… 7/7 … 837         RV           NA              40          36
#> # ℹ 1 more row
#> # ℹ 2 more variables: `Johnson (L)` <dbl>, `Stein (G)` <dbl>
…
Similarly, we would like the Date column to be separated into a poll start date and a poll end date:

polls_sep <- polls |>
  separate(col = Date, into = c("Start", "End"),
           sep = " - ")

6.2.2 unite() Columns

unite() is the “opposite” of separate(): use it when one variable is stored across multiple columns, but each row still represents a single case. The need to use unite() is less common than separate(). In our current data set, there is no need to use it at all. But, for the sake of seeing an example, let’s separate the Start date into month and day and then use unite() to re-unite those columns:

polls_sillytest <- polls_sep |>
  separate(col = Start, into = c("Start_month", "Start_day"), 
           sep = "/")
polls_sillytest
#> # A tibble: 7 × 10
#>   Poll     Start_month Start_day End   Sample   MoE `Clinton (D)` `Trump (R)`
#>   <chr>    <chr>       <chr>     <chr> <chr>  <dbl>         <dbl>       <dbl>
#> 1 Monmouth 7           14        7/16  688 LV   3.7            45          43
#> 2 CNN/ORC  7           13        7/16  872 RV   3.5            42          37
#> 3 ABC New… 7           11        7/14  816 RV   4              42          38
#> 4 NBC New… 7           9         7/13  1000 …   3.1            41          35
#> 5 Economi… 7           9         7/11  932 RV   4.5            40          37
#> 6 Associa… 7           7         7/11  837 RV  NA              40          36
#> # ℹ 1 more row
#> # ℹ 2 more variables: `Johnson (L)` <dbl>, `Stein (G)` <dbl>

This situation could occur in practice: for example, the date variable may be in multiple columns, one for month and one for day (and if there are multiple years, there could be a third for year). We would use unite() to combine these two columns into a single Date, called New_start_date:

polls_sillytest |>
  unite("New_start_date", c(Start_month, Start_day),
        sep = "/")
#> # A tibble: 7 × 9
#>   Poll            New_start_date End   Sample   MoE `Clinton (D)` `Trump (R)`
#>   <chr>           <chr>          <chr> <chr>  <dbl>         <dbl>       <dbl>
#> 1 Monmouth        7/14           7/16  688 LV   3.7            45          43
#> 2 CNN/ORC         7/13           7/16  872 RV   3.5            42          37
#> 3 ABC News/Wash … 7/11           7/14  816 RV   4              42          38
#> 4 NBC News/Wall … 7/9            7/13  1000 …   3.1            41          35
#> 5 Economist/YouG… 7/9            7/11  932 RV   4.5            40          37
#> 6 Associated Pre… 7/7            7/11  837 RV  NA              40          36
#> # ℹ 1 more row
#> # ℹ 2 more variables: `Johnson (L)` <dbl>, `Stein (G)` <dbl>
…
We have also used the c() function in separate() and unite(). While c() is a very general R function and isn’t specific to tidy data, this is the first time that we’re seeing it in this course. c() officially stands for concatenate, but, in simpler terms, c() combines two or more “things”, separated by a comma.

c(1, 4, 2)
#> [1] 1 4 2
c("A", "A", "D")
#> [1] "A" "A" "D"

This is useful if a function argument expects two or more “things”: for example, in separate(), the into argument requires two column names for this example. Those column names must be specified by combining the names together with c().

6.2.3 Column Names and rename()

You might have noticed that the columns with percentage of votes for Clinton, Trump, etc. are surrounded by backticks ` ` when you print polls or polls_sep:

polls_sep
#> # A tibble: 7 × 9
#>   Poll       Start End   Sample   MoE `Clinton (D)` `Trump (R)` `Johnson (L)`
#>   <chr>      <chr> <chr> <chr>  <dbl>         <dbl>       <dbl>         <dbl>
#> 1 Monmouth   7/14  7/16  688 LV   3.7            45          43             5
#> 2 CNN/ORC    7/13  7/16  872 RV   3.5            42          37            13
#> 3 ABC News/… 7/11  7/14  816 RV   4              42          38             8
#> 4 NBC News/… 7/9   7/13  1000 …   3.1            41          35            11
#> 5 Economist… 7/9   7/11  932 RV   4.5            40          37             5
#> 6 Associate… 7/7   7/11  837 RV  NA              40          36             6
#> # ℹ 1 more row
#> # ℹ 1 more variable: `Stein (G)` <dbl>

This happens because the column names have a space in them (this also would occur if the columns started with a number or had odd special characters in them). Then, any time you want to reference a variable, you need the include the backticks:

polls_sep |>
  summarise(meanclinton = mean(Clinton (D))) ## throws an error
polls_sep |>
  summarise(meanclinton = mean(`Clinton (D)`)) ## backticks save the day!

Having variable names with spaces doesn’t technically violate any principle of tidy data, but it can be quite annoying. Always using backticks can be a huge pain. We can rename variables easily with rename(), which just takes a series of new_name = old_name arguments.

polls_new <- polls_sep |>
  rename(Clinton_D = `Clinton (D)`, Trump_R = `Trump (R)`,
         Johnson_L = `Johnson (L)`, Stein_G = `Stein (G)`)
polls_new
#> # A tibble: 7 × 9
#>   Poll           Start End   Sample   MoE Clinton_D Trump_R Johnson_L Stein_G
#>   <chr>          <chr> <chr> <chr>  <dbl>     <dbl>   <dbl>     <dbl>   <dbl>
#> 1 Monmouth       7/14  7/16  688 LV   3.7        45      43         5       1
#> 2 CNN/ORC        7/13  7/16  872 RV   3.5        42      37        13       5
#> 3 ABC News/Wash… 7/11  7/14  816 RV   4          42      38         8       5
#> 4 NBC News/Wall… 7/9   7/13  1000 …   3.1        41      35        11       6
#> 5 Economist/You… 7/9   7/11  932 RV   4.5        40      37         5       2
#> 6 Associated Pr… 7/7   7/11  837 RV  NA          40      36         6       2
#> # ℹ 1 more row
…
ggplot(data = polls_clean, aes(x = Start, y = Clinton_D)) + 
  geom_point(aes(colour = ....??????????))

And we’re stuck. It’s certainly not impossible to make the graph with the data in its current form (keep adding geom_point() and re-specifying the aesthetics, then manually specify colours, then manually specify a legend), but it’s definitely a huge pain.

This is where pivot_longer() can help! https://www.youtube.com/watch?v=8w3wmQAMoxQ

6.3.1 pivot_longer() to Gather Columns

pivot_longer() “pivots” the data set so that is has more rows (hence the “longer”) by collapsing multiple columns into two columns. One new column is a “key” column, which is the new variable containing the old data set’s column names. The second new column is a “value” column, which is the new variable containing the old data set’s values for each of the old data set’s column names. It’s easier to see this with an example. We know from our plotting exercise above that we’d really like a candidate variable to colour by and a poll_percent variable for the y-axis of our plot. So, we can use pivot_longer() to make these two columns:

polls_clean |>
  pivot_longer(cols = c(Clinton_D, Trump_R, Johnson_L, Stein_G),
               names_to = "candidate", values_to = "poll_percent")
#> # A tibble: 28 × 8
#>   Poll     Start End   Sample_size Sample_type   MoE candidate poll_percent
#>   <chr>    <chr> <chr> <chr>       <chr>       <dbl> <chr>            <dbl>
#> 1 Monmouth 7/14  7/16  688         LV            3.7 Clinton_D           45
#> 2 Monmouth 7/14  7/16  688         LV            3.7 Trump_R             43
#> 3 Monmouth 7/14  7/16  688         LV            3.7 Johnson_L            5
#> 4 Monmouth 7/14  7/16  688         LV            3.7 Stein_G              1
#> 5 CNN/ORC  7/13  7/16  872         RV            3.5 Clinton_D           42
#> 6 CNN/ORC  7/13  7/16  872         RV            3.5 Trump_R             37
#> # ℹ 22 more rows
…
6.3.2 pivot_wider() to Spread to Multiple Columns

The “opposite” of pivot_longer() is pivot_wider(). We need to use pivot_wider() when one case is actually spread across multiple rows. pivot_wider() has two main arguments:

names_from, the column in the old data set that will provide the names of the new columns and

values_from, the column in the old data set that will provide the values that fill in the new columns

One common use case of pivot_wider() is the creation of a contingency table from summarised data. For example, suppose that, from the STAT 113 survey data, we have

stat113_df <- read_csv(here::here("data/stat113.csv"))
stat113_sum <- stat113_df |> filter(!is.na(Sex)) |> group_by(Year, Sex) |>
  summarise(n_students = n())
stat113_sum
#> # A tibble: 8 × 3
#> # Groups:   Year [4]
#>   Year      Sex   n_students
#>   <chr>     <chr>      <int>
#> 1 FirstYear F             90
#> 2 FirstYear M             84
#> 3 Junior    F             15
#> 4 Junior    M             18
#> 5 Senior    F              3
#> 6 Senior    M             10
#> # ℹ 2 more rows
…
