DATA / STAT 234 - 7 Coding in Base R
…
sample() can be used to obtain a sample from a vector, either with or without replacement: it has two required arguments: the vector that we want to sample from and size, the size of the sample.

set.seed() can be used to fix R’s random seed. This can be set so that, for example, each person in our class can get the same random sample as long we all set the same seed.

These can be combined to quickly generate toy data. For example, below we are generating two quantitative variables (that are normally distributed) and two categorical variables:

set.seed(15125141)
toy_df <- tibble(xvar = rnorm(100, 3, 4),
                 yvar = rnorm(100, -5, 10),
                 group1 = sample(c("A", "B", "C"), size = 100, replace = TRUE),
                 group2 = sample(c("Place1", "Place2", "Place3"), size = 100,
                                 replace = TRUE))
toy_df
#> # A tibble: 100 × 4
#>     xvar   yvar group1 group2
#>    <dbl>  <dbl> <chr>  <chr> 
#> 1  0.516 -13.5  B      Place2
#> 2 -0.891 -13.3  A      Place2
#> 3  5.58  -14.3  B      Place2
#> 4  2.42   -4.91 C      Place1
#> 5  1.43   -5.86 B      Place2
#> 6  6.61   12.7  B      Place2
#> # … with 94 more rows
…
toy_df |>
  print(width = Inf) ## print out all of the columns
#> # A tibble: 100 × 4
#>     xvar   yvar group1 group2
#>    <dbl>  <dbl> <chr>  <chr> 
#> 1  0.516 -13.5  B      Place2
#> 2 -0.891 -13.3  A      Place2
#> 3  5.58  -14.3  B      Place2
#> 4  2.42   -4.91 C      Place1
#> 5  1.43   -5.86 B      Place2
#> 6  6.61   12.7  B      Place2
#> # … with 94 more rows
…
