DATA 234 - 8 Coding in Base R
…
sample() can be used to obtain a sample from a vector, either with or without replacement: it has two required arguments: the vector that we want to sample from and size, the size of the sample.

set.seed() can be used to fix R’s random seed. This can be set so that, for example, each person in our class can get the same random sample as long we all set the same seed.

These can be combined to quickly generate toy data. For example, below we are generating two quantitative variables (that are normally distributed) and two categorical variables:

set.seed(15125141)
toy_df <- tibble(xvar = rnorm(100, 3, 4),
                 yvar = rnorm(100, -5, 10),
                 group1 = sample(c("A", "B", "C"), size = 100, replace = TRUE),
                 group2 = sample(c("Place1", "Place2", "Place3"), size = 100,
                                 replace = TRUE))
toy_df

# A tibble: 100 × 4
     xvar   yvar group1 group2
    <dbl>  <dbl> <chr>  <chr> 
 1  0.516 -13.5  B      Place2
 2 -0.891 -13.3  A      Place2
 3  5.58  -14.3  B      Place2
 4  2.42   -4.91 C      Place1
 5  1.43   -5.86 B      Place2
 6  6.61   12.7  B      Place2
 7 -2.04   -9.28 A      Place1
 8  7.56    1.89 A      Place3
 9 -0.425 -30.1  C      Place1
10  4.14    2.65 C      Place2
# … with 90 more rows
# ℹ Use `print(n = ...)` to see more rows
…
toy_df |>
  print(width = Inf) ## print out all of the columns

# A tibble: 100 × 4
     xvar   yvar group1 group2
    <dbl>  <dbl> <chr>  <chr> 
 1  0.516 -13.5  B      Place2
 2 -0.891 -13.3  A      Place2
 3  5.58  -14.3  B      Place2
 4  2.42   -4.91 C      Place1
 5  1.43   -5.86 B      Place2
 6  6.61   12.7  B      Place2
 7 -2.04   -9.28 A      Place1
 8  7.56    1.89 A      Place3
 9 -0.425 -30.1  C      Place1
10  4.14    2.65 C      Place2
# … with 90 more rows
# ℹ Use `print(n = ...)` to see more rows
…
2 %in% c(1, 2, 3, 4)

[1] TRUE

2 %in% c(3, 4, 5, 6)

[1] FALSE

fitness_df |>
  mutate(weekend_ind = case_when(weekday %in% vecweekend ~ "weekend",
                                 weekday %in% vecweekday ~ "weekday")) |>
  select(weekend_ind, everything())

# A tibble: 993 × 11
   weekend_ind Start      active_…¹ dista…² flights  steps month weekday dayof…³
   <chr>       <date>         <dbl>   <dbl>   <dbl>  <dbl> <dbl>   <dbl>   <dbl>
 1 weekday     2018-11-28      57.8   0.930       0  1885.    11       4     332
 2 weekday     2018-11-29     509.    4.64       18  8953.    11       5     333
 3 weekday     2018-11-30     599.    6.05       12 11665     11       6     334
 4 weekend     2018-12-01     661.    6.80        6 12117     12       7     335
 5 weekend     2018-12-02     527.    4.61        1  8925.    12       1     336
 6 weekday     2018-12-03     550.    3.96        2  7205     12       2     337
 7 weekday     2018-12-04     670.    6.60        5 12483.    12       3     338
 8 weekday     2018-12-05     557.    4.91        6  9258.    12       4     339
 9 weekday     2018-12-06     997.    7.50       13 14208     12       5     340
10 weekday     2018-12-07     533.    4.27        8  8269.    12       6     341
# … with 983 more rows, 2 more variables: stepgoal <dbl>, weekday_cat <fct>,
#   and abbreviated variable names ¹​active_cals, ²​distance, ³​dayofyear
# ℹ Use `print(n = ...)` to see more rows, and `colnames()` to see all variable names

## can also use if_else, which is actually a little simpler in this case:
fitness_df |> mutate(weekend_ind = if_else(weekday %in% vecweekend,
  true = "weekend", false = "weekday")) |>
  select(weekend_ind, everything())

# A tibble: 993 × 11
   weekend_ind Start      active_…¹ dista…² flights  steps month weekday dayof…³
   <chr>       <date>         <dbl>   <dbl>   <dbl>  <dbl> <dbl>   <dbl>   <dbl>
 1 weekday     2018-11-28      57.8   0.930       0  1885.    11       4     332
 2 weekday     2018-11-29     509.    4.64       18  8953.    11       5     333
 3 weekday     2018-11-30     599.    6.05       12 11665     11       6     334
 4 weekend     2018-12-01     661.    6.80        6 12117     12       7     335
 5 weekend     2018-12-02     527.    4.61        1  8925.    12       1     336
 6 weekday     2018-12-03     550.    3.96        2  7205     12       2     337
 7 weekday     2018-12-04     670.    6.60        5 12483.    12       3     338
 8 weekday     2018-12-05     557.    4.91        6  9258.    12       4     339
 9 weekday     2018-12-06     997.    7.50       13 14208     12       5     340
10 weekday     2018-12-07     533.    4.27        8  8269.    12       6     341
# … with 983 more rows, 2 more variables: stepgoal <dbl>, weekday_cat <fct>,
#   and abbreviated variable names ¹​active_cals, ²​distance, ³​dayofyear
# ℹ Use `print(n = ...)` to see more rows, and `colnames()` to see all variable names
…
