DATA / STAT 234 - 9 Factors with forcats
…
9.1.2 Collapsing Many Levels Into Fewer Levels with fct_collapse()

Sometimes, you might want to collapse the levels of two or more factors into a single level. With the Pokemon data set, there isn’t an example where this really makes sense, but, in the exercises, you’ll see a good use for this function with the social survey data set. For practice, we can collapse the Ice and Dark type Pokemon into a new level called Coolest and we can collapse the Poison, Fighting, and Fire type Pokemon into a new level called Least_Cool.

pokemon_long <- pokemon_df |> pivot_longer(c(`Type 1`, `Type 2`),
                            names_to = "Number",
                            values_to = "Type")
pokemon_long |>
  mutate(new_type = fct_collapse(Type, Coolest = c("Ice", "Dark"),
                                 Least_Cool = c("Fire", "Fighting", "Poison"))) |>
  select(new_type, Type, everything())

# A tibble: 1,894 × 22
   new_type   Type    `#` Name  Total    HP Attack Defense Sp. A…¹ Sp. D…² Speed
   <fct>      <chr> <dbl> <chr> <dbl> <dbl>  <dbl>   <dbl>   <dbl>   <dbl> <dbl>
 1 Grass      Grass     1 Bulb…   318    45     49      49      65      65    45
 2 Least_Cool Pois…     1 Bulb…   318    45     49      49      65      65    45
 3 Grass      Grass     2 Ivys…   405    60     62      63      80      80    60
 4 Least_Cool Pois…     2 Ivys…   405    60     62      63      80      80    60
 5 Grass      Grass     3 Venu…   525    80     82      83     100     100    80
 6 Least_Cool Pois…     3 Venu…   525    80     82      83     100     100    80
 7 Grass      Grass     3 Venu…   525    80     82      83     100     100    80
 8 Least_Cool Pois…     3 Venu…   525    80     82      83     100     100    80
 9 Least_Cool Fire      4 Char…   309    39     52      43      60      50    65
10 <NA>       <NA>      4 Char…   309    39     52      43      60      50    65
# … with 1,884 more rows, 11 more variables: Generation <dbl>, Legendary <lgl>,
#   id <chr>, identifier <chr>, height <dbl>, weight <dbl>,
#   base_experience <dbl>, order <dbl>, is_default <dbl>, Generation_cat <fct>,
#   Number <chr>, and abbreviated variable names ¹​`Sp. Atk`, ²​`Sp. Def`
…
Rows: 638 Columns: 15
── Column specification ────────────────────────────────────────────────────────
Delimiter: ","
chr  (4): team, team_name, playoffs, sb_winner
dbl (11): year, wins, loss, points_for, points_against, points_differential,...

ℹ Use `spec()` to retrieve the full column specification for this data.
ℹ Specify the column types or set `show_col_types = FALSE` to quiet this message.

standings_df

# A tibble: 638 × 15
   team        team_…¹  year  wins  loss point…² point…³ point…⁴ margi…⁵ stren…⁶
   <chr>       <chr>   <dbl> <dbl> <dbl>   <dbl>   <dbl>   <dbl>   <dbl>   <dbl>
 1 Miami       Dolphi…  2000    11     5     323     226      97     6.1     1  
 2 Indianapol… Colts    2000    10     6     429     326     103     6.4     1.5
 3 New York    Jets     2000     9     7     321     321       0     0       3.5
 4 Buffalo     Bills    2000     8     8     315     350     -35    -2.2     2.2
 5 New England Patrio…  2000     5    11     276     338     -62    -3.9     1.4
 6 Tennessee   Titans   2000    13     3     346     191     155     9.7    -1.3
 7 Baltimore   Ravens   2000    12     4     333     165     168    10.5    -2.5
 8 Pittsburgh  Steele…  2000     9     7     321     255      66     4.1    -0.2
 9 Jacksonvil… Jaguars  2000     7     9     367     327      40     2.5    -1.4
10 Cincinnati  Bengals  2000     4    12     185     359    -174   -10.9     0.4
# … with 628 more rows, 5 more variables: simple_rating <dbl>,
#   offensive_ranking <dbl>, defensive_ranking <dbl>, playoffs <chr>,
#   sb_winner <chr>, and abbreviated variable names ¹​team_name, ²​points_for,
#   ³​points_against, ⁴​points_differential, ⁵​margin_of_victory,
#   ⁶​strength_of_schedule
…
