DATA / STAT 234 - 10 Data Import
…
What do you notice about the data set that seems odd? Open the .csv file with Excel or some other program to examine the data set outside of R.

Type in ?read_csv in the bottom-left window and look at some of the options in read_csv(). In particular, we will use the na and the skip arguments to fix up our reading.

Let’s start with skip so that we aren’t reading in the first two rows of the data set:

cars_df <- read_csv(here("data/mtcarsex.csv"), skip = 2)
## first two lines will be skipped
cars_df
#> # A tibble: 34 × 11
#>      mpg   cyl  disp    hp  drat    wt  qsec    vs    am  gear  carb
#>    <dbl> <dbl> <dbl> <dbl> <dbl> <dbl> <dbl> <dbl> <dbl> <dbl> <dbl>
#> 1   NA      NA    NA    NA NA    NA     NA      NA    NA    NA    NA
#> 2   NA      NA    NA    NA NA    NA     NA      NA    NA    NA    NA
#> 3 -999       6   160   110  3.9   2.62  16.5     0     1     4     4
#> 4   21       6   160   110  3.9   2.88  17.0     0     1     4     4
#> 5   22.8     4   108    93  3.85  2.32  18.6     1     1     4     1
#> 6   21.4     6   258   110  3.08  3.22  19.4     1     0     3     1
#> # ℹ 28 more rows
…
## install.packages("jsonlite")
library(jsonlite)
cr_cards <- fromJSON(here("data/clash_royale_card_info.json"))

Next, type View(cr_cards) in your console (bottom-left) window to look at the data. See if you can pull out the data set by clicking on some things in the View() window.

The following give a couple of ways to grab the data using code. The as_tibble() function converts a rectangular object into our familiar tibble.

The first option specifies the name of the table that’s in the JSON file (in this case, the name is "cards"):

library(tidyverse)
cr_cards_flat <- cr_cards[["cards"]]
cr_cards_df <- as_tibble(cr_cards_flat)
cr_cards_df
#> # A tibble: 93 × 8
#>   key     name      elixir type  rarity arena description                  id
#>   <chr>   <chr>      <int> <chr> <chr>  <int> <chr>                     <int>
#> 1 knight  Knight         3 Troop Common     0 A tough melee fighter. … 2.6 e7
#> 2 archers Archers        3 Troop Common     0 A pair of lightly armor… 2.60e7
#> 3 goblins Goblins        2 Troop Common     1 Three fast, unarmored m… 2.60e7
#> 4 giant   Giant          5 Troop Rare       0 Slow but durable, only … 2.60e7
#> 5 pekka   P.E.K.K.A      7 Troop Epic       4 A heavily armored, slow… 2.60e7
#> 6 minions Minions        3 Troop Common     0 Three fast, unarmored f… 2.60e7
#> # ℹ 87 more rows

The second method uses the flatten() function from the purrr package, the only package in the core tidyverse that we do not talk about in detail in this class. There is also a different flatten() function in the jsonlite package. In the code below, we specify that we want to use flatten() from purrr with purrr::flatten(). If we wanted to use flatten() from jsonlite, we’d use jsonlite::flatten()

cr_cards_flat2 <- purrr::flatten(cr_cards)
cr_cards_df2 <- as_tibble(cr_cards_flat2)
cr_cards_df2
#> # A tibble: 93 × 8
#>   key     name      elixir type  rarity arena description                  id
#>   <chr>   <chr>      <int> <chr> <chr>  <int> <chr>                     <int>
#> 1 knight  Knight         3 Troop Common     0 A tough melee fighter. … 2.6 e7
#> 2 archers Archers        3 Troop Common     0 A pair of lightly armor… 2.60e7
#> 3 goblins Goblins        2 Troop Common     1 Three fast, unarmored m… 2.60e7
#> 4 giant   Giant          5 Troop Rare       0 Slow but durable, only … 2.60e7
#> 5 pekka   P.E.K.K.A      7 Troop Epic       4 A heavily armored, slow… 2.60e7
#> 6 minions Minions        3 Troop Common     0 Three fast, unarmored f… 2.60e7
#> # ℹ 87 more rows
…
