…
Why are `births` missing in `head(combined_left)` but not in `tail(combined_left)`?

### Keep All Rows of Data Set 2 with `right_join()`

Recall from the accompanying handout that there is no need to ever use `right_join()` because it is the same as using a `left_join()` with the first two data set arguments switched:


```r
## these will always do the same exact thing
right_join(babynames_df, birth_df, by = c("year" = "year"))
#> # A tibble: 1,839,952 × 6
#>     year sex   name          n   prop  births
#>    <dbl> <chr> <chr>     <int>  <dbl>   <int>
#>  1  1909 F     Mary      19259 0.0523 2718000
#>  2  1909 F     Helen      9250 0.0251 2718000
#>  3  1909 F     Margaret   7359 0.0200 2718000
#>  4  1909 F     Ruth       6509 0.0177 2718000
#>  5  1909 F     Dorothy    6253 0.0170 2718000
#>  6  1909 F     Anna       5804 0.0158 2718000
#>  7  1909 F     Elizabeth  5176 0.0141 2718000
#>  8  1909 F     Mildred    5054 0.0137 2718000
#>  9  1909 F     Marie      4301 0.0117 2718000
#> 10  1909 F     Alice      4170 0.0113 2718000
#> # … with 1,839,942 more rows
#> # ℹ Use `print(n = ...)` to see more rows
left_join(birth_df, babynames_df, by = c("year" = "year"))
#> # A tibble: 1,839,952 × 6
#>     year  births sex   name          n   prop
#>    <dbl>   <int> <chr> <chr>     <int>  <dbl>
#>  1  1909 2718000 F     Mary      19259 0.0523
#>  2  1909 2718000 F     Helen      9250 0.0251
#>  3  1909 2718000 F     Margaret   7359 0.0200
#>  4  1909 2718000 F     Ruth       6509 0.0177
#>  5  1909 2718000 F     Dorothy    6253 0.0170
#>  6  1909 2718000 F     Anna       5804 0.0158
#>  7  1909 2718000 F     Elizabeth  5176 0.0141
#>  8  1909 2718000 F     Mildred    5054 0.0137
#>  9  1909 2718000 F     Marie      4301 0.0117
#> 10  1909 2718000 F     Alice      4170 0.0113
#> # … with 1,839,942 more rows
#> # ℹ Use `print(n = ...)` to see more rows
```
…
A `full_join()` will keep all rows in data set 1 that don't have a matching key in data set 2, and will also keep all rows in data set 2 that don't have a matching key in data set 1, filling in `NA` for missing values when necessary. For our example of merging `babynames_df` with `birth_df`,


```r
full_join(babynames_df, birth_df, by = c("year" = "year"))
```

### Keep Only Rows with Matching Keys with `inner_join()`

We can also keep only rows with matching keys with `inner_join()`. For this join, any row in data set 1 without a matching key in data set 2 is dropped, and any row in data set 2 without a matching key in data set 1 is also dropped.


```r
inner_join(babynames_df, birth_df, by = c("year" = "year"))
#> # A tibble: 1,839,952 × 6
#>     year sex   name          n   prop  births
#>    <dbl> <chr> <chr>     <int>  <dbl>   <int>
#>  1  1909 F     Mary      19259 0.0523 2718000
#>  2  1909 F     Helen      9250 0.0251 2718000
#>  3  1909 F     Margaret   7359 0.0200 2718000
#>  4  1909 F     Ruth       6509 0.0177 2718000
#>  5  1909 F     Dorothy    6253 0.0170 2718000
#>  6  1909 F     Anna       5804 0.0158 2718000
#>  7  1909 F     Elizabeth  5176 0.0141 2718000
#>  8  1909 F     Mildred    5054 0.0137 2718000
#>  9  1909 F     Marie      4301 0.0117 2718000
#> 10  1909 F     Alice      4170 0.0113 2718000
#> # … with 1,839,942 more rows
#> # ℹ Use `print(n = ...)` to see more rows
```
…
The most logical key for joining these two data sets is `Major`,  but joining the data sets won't actually work. The following is an attempt at using `Major` as the key.


```r
left_join(slumajors_df, collegemajors_df, by = c("Major" = "Major"))
#> # A tibble: 27 × 14
#>    Major    nfema…¹ nmales Total   Men Women Major…² Emplo…³
#>    <chr>      <dbl>  <dbl> <dbl> <dbl> <dbl> <chr>     <dbl>
#>  1 Anthrop…      34     15    NA    NA    NA <NA>         NA
#>  2 Art & A…      65     11    NA    NA    NA <NA>         NA
#>  3 Biochem…      14     11    NA    NA    NA <NA>         NA
#>  4 Biology      162     67    NA    NA    NA <NA>         NA
#>  5 Busines…     135    251    NA    NA    NA <NA>         NA
#>  6 Chemist…      26     14    NA    NA    NA <NA>         NA
#>  7 Compute…      21     47    NA    NA    NA <NA>         NA
#>  8 Conserv…      38     20    NA    NA    NA <NA>         NA
#>  9 Economi…     128    349    NA    NA    NA <NA>         NA
#> 10 English      131     54    NA    NA    NA <NA>         NA
#> # … with 17 more rows, 6 more variables: Full_time <dbl>,
#> #   Part_time <dbl>, Unemployed <dbl>, Median <dbl>,
#> #   P25th <dbl>, P75th <dbl>, and abbreviated variable
#> #   names ¹​nfemales, ²​Major_category, ³​Employed
#> # ℹ Use `print(n = ...)` to see more rows, and `colnames()` to see all variable names
```

Why did the `collegemajors_df` give only `NA` values when we tried to merge by major?

This example underscores the importance of having a key that matches __exactly__. Some, but not all, of the issues involved in joining these two data sets can be solved with functions in the `stringr` package (discussed in a few weeks). For example, the capitalization issue can be solved with the `str_to_title()` function, which converts that all-caps majors in `collegemajors_df` to majors where only the first letter of each word is capitalized:


```r
collegemajors_df <- collegemajors_df |>
  mutate(Major = str_to_title(Major))
left_join(slumajors_df, collegemajors_df)
#> Joining, by = "Major"
#> # A tibble: 27 × 14
#>    Major nfema…¹ nmales  Total    Men  Women Major…² Emplo…³
#>    <chr>   <dbl>  <dbl>  <dbl>  <dbl>  <dbl> <chr>     <dbl>
#>  1 Anth…      34     15     NA     NA     NA <NA>         NA
#>  2 Art …      65     11     NA     NA     NA <NA>         NA
#>  3 Bioc…      14     11     NA     NA     NA <NA>         NA
#>  4 Biol…     162     67 280709 111762 168947 Biolog…  182295
#>  5 Busi…     135    251     NA     NA     NA <NA>         NA
#>  6 Chem…      26     14  66530  32923  33607 Physic…   48535
#>  7 Comp…      21     47 128319  99743  28576 Comput…  102087
#>  8 Cons…      38     20     NA     NA     NA <NA>         NA
#>  9 Econ…     128    349 139247  89749  49498 Social…  104117
#> 10 Engl…     131     54     NA     NA     NA <NA>         NA
#> # … with 17 more rows, 6 more variables: Full_time <dbl>,
#> #   Part_time <dbl>, Unemployed <dbl>, Median <dbl>,
#> #   P25th <dbl>, P75th <dbl>, and abbreviated variable
#> #   names ¹​nfemales, ²​Major_category, ³​Employed
#> # ℹ Use `print(n = ...)` to see more rows, and `colnames()` to see all variable names
```

As we can see, this solves the issue for some majors but others still have different naming conventions in the two data sets.

### Exercises {#exercise-10-2}

Exercises marked with an \* indicate that the exercise has a solution at the end of the chapter at \@ref(solutions-10).

1. Examine the following two joins that we've done, and explain why one resulting data set has fewer observations (rows) than the other.


```r
left_join(babynames_df, birth_df, by = c("year" = "year"))
#> # A tibble: 1,924,665 × 6
#>     year sex   name          n   prop births
#>    <dbl> <chr> <chr>     <int>  <dbl>  <int>
#>  1  1880 F     Mary       7065 0.0724     NA
#>  2  1880 F     Anna       2604 0.0267     NA
#>  3  1880 F     Emma       2003 0.0205     NA
#>  4  1880 F     Elizabeth  1939 0.0199     NA
#>  5  1880 F     Minnie     1746 0.0179     NA
#>  6  1880 F     Margaret   1578 0.0162     NA
#>  7  1880 F     Ida        1472 0.0151     NA
#>  8  1880 F     Alice      1414 0.0145     NA
#>  9  1880 F     Bertha     1320 0.0135     NA
#> 10  1880 F     Sarah      1288 0.0132     NA
#> # … with 1,924,655 more rows
#> # ℹ Use `print(n = ...)` to see more rows
left_join(birth_df, babynames_df, by = c("year" = "year"))
#> # A tibble: 1,839,952 × 6
#>     year  births sex   name          n   prop
#>    <dbl>   <int> <chr> <chr>     <int>  <dbl>
#>  1  1909 2718000 F     Mary      19259 0.0523
#>  2  1909 2718000 F     Helen      9250 0.0251
#>  3  1909 2718000 F     Margaret   7359 0.0200
#>  4  1909 2718000 F     Ruth       6509 0.0177
#>  5  1909 2718000 F     Dorothy    6253 0.0170
#>  6  1909 2718000 F     Anna       5804 0.0158
#>  7  1909 2718000 F     Elizabeth  5176 0.0141
#>  8  1909 2718000 F     Mildred    5054 0.0137
#>  9  1909 2718000 F     Marie      4301 0.0117
#> 10  1909 2718000 F     Alice      4170 0.0113
#> # … with 1,839,942 more rows
#> # ℹ Use `print(n = ...)` to see more rows
```
…
3. Evaluate whether the following statement is true or false: an `inner_join()` will always result in a data set with the same or fewer rows than a `left_join()`.

## Filtering Joins

Filtering joins (`semi_join()` and `anti_join()`) are useful if you would only like to keep the variables in one data set, but you want to filter out observations by a variable in the second data set.

Consider again the two data sets on men's tennis matches in 2018 and in 2019.


```r
atp_2019 <- read_csv(here("data/atp_matches_2019.csv"))
atp_2018 <- read_csv(here("data/atp_matches_2018.csv"))
atp_2019
#> # A tibble: 2,781 × 49
#>    tourney…¹ tourn…² surface draw_…³ tourn…⁴ tourn…⁵ match…⁶
#>    <chr>     <chr>   <chr>     <dbl> <chr>     <dbl>   <dbl>
#>  1 2019-M020 Brisba… Hard         32 A        2.02e7     300
#>  2 2019-M020 Brisba… Hard         32 A        2.02e7     299
#>  3 2019-M020 Brisba… Hard         32 A        2.02e7     298
#>  4 2019-M020 Brisba… Hard         32 A        2.02e7     297
#>  5 2019-M020 Brisba… Hard         32 A        2.02e7     296
#>  6 2019-M020 Brisba… Hard         32 A        2.02e7     295
#>  7 2019-M020 Brisba… Hard         32 A        2.02e7     294
#>  8 2019-M020 Brisba… Hard         32 A        2.02e7     293
#>  9 2019-M020 Brisba… Hard         32 A        2.02e7     292
#> 10 2019-M020 Brisba… Hard         32 A        2.02e7     291
#> # … with 2,771 more rows, 42 more variables:
#> #   winner_id <dbl>, winner_seed <chr>, winner_entry <chr>,
#> #   winner_name <chr>, winner_hand <chr>, winner_ht <dbl>,
#> #   winner_ioc <chr>, winner_age <dbl>, loser_id <dbl>,
#> #   loser_seed <chr>, loser_entry <chr>, loser_name <chr>,
#> #   loser_hand <chr>, loser_ht <dbl>, loser_ioc <chr>,
#> #   loser_age <dbl>, score <chr>, best_of <dbl>, …
#> # ℹ Use `print(n = ...)` to see more rows, and `colnames()` to see all variable names
atp_2018
#> # A tibble: 2,889 × 49
#>    tourney…¹ tourn…² surface draw_…³ tourn…⁴ tourn…⁵ match…⁶
#>    <chr>     <chr>   <chr>     <dbl> <chr>     <dbl>   <dbl>
#>  1 2018-M020 Brisba… Hard         32 A        2.02e7     271
#>  2 2018-M020 Brisba… Hard         32 A        2.02e7     272
#>  3 2018-M020 Brisba… Hard         32 A        2.02e7     273
#>  4 2018-M020 Brisba… Hard         32 A        2.02e7     275
#>  5 2018-M020 Brisba… Hard         32 A        2.02e7     276
#>  6 2018-M020 Brisba… Hard         32 A        2.02e7     277
#>  7 2018-M020 Brisba… Hard         32 A        2.02e7     278
#>  8 2018-M020 Brisba… Hard         32 A        2.02e7     279
#>  9 2018-M020 Brisba… Hard         32 A        2.02e7     280
#> 10 2018-M020 Brisba… Hard         32 A        2.02e7     282
#> # … with 2,879 more rows, 42 more variables:
#> #   winner_id <dbl>, winner_seed <dbl>, winner_entry <chr>,
#> #   winner_name <chr>, winner_hand <chr>, winner_ht <dbl>,
#> #   winner_ioc <chr>, winner_age <dbl>, loser_id <dbl>,
#> #   loser_seed <dbl>, loser_entry <chr>, loser_name <chr>,
#> #   loser_hand <chr>, loser_ht <dbl>, loser_ioc <chr>,
#> #   loser_age <dbl>, score <chr>, best_of <dbl>, …
#> # ℹ Use `print(n = ...)` to see more rows, and `colnames()` to see all variable names
```

### Filtering with `semi_join()` 

Suppose that we only want to keep matches in 2019 where the winning player had 10 or more wins in 2018. This might be useful if we want to not consider players in 2018 that only played in a couple of matches, perhaps because they got injured or perhaps because they received a special wildcard into the draw of only one event.

To accomplish this, we can first create a data set that has the names of all of the players that won 10 or more matches in 2018, using functions that we learned from `dplyr` earlier in the semester:


```r
win10 <- atp_2018 |> group_by(winner_name) |>
  summarise(nwin = n()) |> 
  filter(nwin >= 10)
win10
#> # A tibble: 93 × 2
#>    winner_name       nwin
#>    <chr>            <int>
#>  1 Adrian Mannarino    26
#>  2 Albert Ramos        21
#>  3 Alex De Minaur      29
#>  4 Alexander Zverev    58
#>  5 Aljaz Bedene        19
#>  6 Andreas Seppi       24
#>  7 Andrey Rublev       20
#>  8 Benoit Paire        27
#>  9 Borna Coric         40
#> 10 Cameron Norrie      19
#> # … with 83 more rows
#> # ℹ Use `print(n = ...)` to see more rows
```
…
```r
new_winners <- anti_join(atp_2019, atp_2018,
                         by = c("winner_name" = "winner_name")) 
new_winners$winner_name
```

We can then examine how many wins each of these "new" (or perhaps previously injured) players had in 2019:


```r
new_winners |> group_by(winner_name) |>
  summarise(nwin = n()) |>
  arrange(desc(nwin))
#> # A tibble: 59 × 2
#>    winner_name           nwin
#>    <chr>                <int>
#>  1 Christian Garin         32
#>  2 Juan Ignacio Londero    22
#>  3 Miomir Kecmanovic       22
#>  4 Hugo Dellien            12
#>  5 Attila Balazs            7
#>  6 Cedrik Marcel Stebe      7
#>  7 Janko Tipsarevic         7
#>  8 Jannik Sinner            7
#>  9 Soon Woo Kwon            7
#> 10 Gregoire Barrere         6
#> # … with 49 more rows
#> # ℹ Use `print(n = ...)` to see more rows
```
…
test3 <- tibble(state = "Washington D.C.", mortality_rate = "16.7",
       ownership_rate = "0.087", region = "NE")
bind_rows(mortality_df, test3)
#> Error in `bind_rows()`:
#> ! Can't combine `mortality_rate` <double> and `mortality_rate` <character>.
```

3. Examine the following data sets that are in `R`'s base library on demographic statistics about the U.S. states and state abbreviations:


```r
df1 <- as_tibble(state.x77)
df2 <- as_tibble(state.abb)
df1
#> # A tibble: 50 × 8
#>    Population Income Illiteracy Life …¹ Murder HS Gr…² Frost
#>         <dbl>  <dbl>      <dbl>   <dbl>  <dbl>   <dbl> <dbl>
#>  1       3615   3624        2.1    69.0   15.1    41.3    20
#>  2        365   6315        1.5    69.3   11.3    66.7   152
#>  3       2212   4530        1.8    70.6    7.8    58.1    15
#>  4       2110   3378        1.9    70.7   10.1    39.9    65
#>  5      21198   5114        1.1    71.7   10.3    62.6    20
#>  6       2541   4884        0.7    72.1    6.8    63.9   166
#>  7       3100   5348        1.1    72.5    3.1    56     139
#>  8        579   4809        0.9    70.1    6.2    54.6   103
#>  9       8277   4815        1.3    70.7   10.7    52.6    11
#> 10       4931   4091        2      68.5   13.9    40.6    60
#> # … with 40 more rows, 1 more variable: Area <dbl>, and
#> #   abbreviated variable names ¹​`Life Exp`, ²​`HS Grad`
#> # ℹ Use `print(n = ...)` to see more rows, and `colnames()` to see all variable names
df2
#> # A tibble: 50 × 1
#>    value
#>    <chr>
#>  1 AL   
#>  2 AK   
#>  3 AZ   
#>  4 AR   
#>  5 CA   
#>  6 CO   
#>  7 CT   
#>  8 DE   
#>  9 FL   
#> 10 GA   
#> # … with 40 more rows
#> # ℹ Use `print(n = ...)` to see more rows
```
…
4. \* Combine the columns of the states data set you made in Section A Exercise 3 with the mortality data set __without__ Washington D.C.


```r
bind_cols(mortality_df, states_df)
```

5. \* Use a join function to combine the mortality data set __with__ D.C. with the states data set from Exercise 3. For this exercise, keep the row with Washington D.C., having it take on `NA` values for any variable not observed in the states data.


```r
left_join(all_df, states_df, by = c("state" = "value"))
#> # A tibble: 51 × 12
#>    state mortality_r…¹ owner…² region Popul…³ Income Illit…⁴
#>    <chr>         <dbl>   <dbl> <chr>    <dbl>  <dbl>   <dbl>
#>  1 AL             16.7   0.489 South     3615   3624     2.1
#>  2 AK             18.8   0.617 West       365   6315     1.5
#>  3 AZ             13.4   0.323 West      2212   4530     1.8
#>  4 AR             16.4   0.579 South     2110   3378     1.9
#>  5 CA              7.4   0.201 West     21198   5114     1.1
#>  6 CO             12.1   0.343 West      2541   4884     0.7
#>  7 CT              4.9   0.166 NE        3100   5348     1.1
#>  8 DE             11.1   0.052 NE         579   4809     0.9
#>  9 FL             11.5   0.325 South     8277   4815     1.3
#> 10 GA             13.7   0.316 South     4931   4091     2  
#> # … with 41 more rows, 5 more variables: `Life Exp` <dbl>,
#> #   Murder <dbl>, `HS Grad` <dbl>, Frost <dbl>, Area <dbl>,
#> #   and abbreviated variable names ¹​mortality_rate,
#> #   ²​ownership_rate, ³​Population, ⁴​Illiteracy
#> # ℹ Use `print(n = ...)` to see more rows, and `colnames()` to see all variable names
## or
full_join(all_df, states_df, by = c("state" = "value"))
#> # A tibble: 51 × 12
#>    state mortality_r…¹ owner…² region Popul…³ Income Illit…⁴
#>    <chr>         <dbl>   <dbl> <chr>    <dbl>  <dbl>   <dbl>
#>  1 AL             16.7   0.489 South     3615   3624     2.1
#>  2 AK             18.8   0.617 West       365   6315     1.5
#>  3 AZ             13.4   0.323 West      2212   4530     1.8
#>  4 AR             16.4   0.579 South     2110   3378     1.9
#>  5 CA              7.4   0.201 West     21198   5114     1.1
#>  6 CO             12.1   0.343 West      2541   4884     0.7
#>  7 CT              4.9   0.166 NE        3100   5348     1.1
#>  8 DE             11.1   0.052 NE         579   4809     0.9
#>  9 FL             11.5   0.325 South     8277   4815     1.3
#> 10 GA             13.7   0.316 South     4931   4091     2  
#> # … with 41 more rows, 5 more variables: `Life Exp` <dbl>,
#> #   Murder <dbl>, `HS Grad` <dbl>, Frost <dbl>, Area <dbl>,
#> #   and abbreviated variable names ¹​mortality_rate,
#> #   ²​ownership_rate, ³​Population, ⁴​Illiteracy
#> # ℹ Use `print(n = ...)` to see more rows, and `colnames()` to see all variable names
```

6. \* Repeat Exercise 5, but now drop Washington D.C. in your merging process. Practice doing this __with a join function__ (as opposed to `slice()` ing it out explictly).


```r
inner_join(all_df, states_df, by = c("state" = "value"))
#> # A tibble: 50 × 12
#>    state mortality_r…¹ owner…² region Popul…³ Income Illit…⁴
#>    <chr>         <dbl>   <dbl> <chr>    <dbl>  <dbl>   <dbl>
#>  1 AL             16.7   0.489 South     3615   3624     2.1
#>  2 AK             18.8   0.617 West       365   6315     1.5
#>  3 AZ             13.4   0.323 West      2212   4530     1.8
#>  4 AR             16.4   0.579 South     2110   3378     1.9
#>  5 CA              7.4   0.201 West     21198   5114     1.1
#>  6 CO             12.1   0.343 West      2541   4884     0.7
#>  7 CT              4.9   0.166 NE        3100   5348     1.1
#>  8 DE             11.1   0.052 NE         579   4809     0.9
#>  9 FL             11.5   0.325 South     8277   4815     1.3
#> 10 GA             13.7   0.316 South     4931   4091     2  
#> # … with 40 more rows, 5 more variables: `Life Exp` <dbl>,
#> #   Murder <dbl>, `HS Grad` <dbl>, Frost <dbl>, Area <dbl>,
#> #   and abbreviated variable names ¹​mortality_rate,
#> #   ²​ownership_rate, ³​Population, ⁴​Illiteracy
#> # ℹ Use `print(n = ...)` to see more rows, and `colnames()` to see all variable names
…
