DATA / STAT 234 - 11 Merging with dplyr
…
Why are births missing in head(combined_left) but not in tail(combined_left)?

11.2.2 Keep All Rows of Data Set 2 with right_join()

Recall from the accompanying handout that there is no need to ever use right_join() because it is the same as using a left_join() with the first two data set arguments switched:

## these will always do the same exact thing
right_join(babynames_df, birth_df, by = c("year" = "year"))
#> # A tibble: 1,839,952 × 6
#>    year sex   name         n   prop  births
#>   <dbl> <chr> <chr>    <int>  <dbl>   <int>
#> 1  1909 F     Mary     19259 0.0523 2718000
#> 2  1909 F     Helen     9250 0.0251 2718000
#> 3  1909 F     Margaret  7359 0.0200 2718000
#> 4  1909 F     Ruth      6509 0.0177 2718000
#> 5  1909 F     Dorothy   6253 0.0170 2718000
#> 6  1909 F     Anna      5804 0.0158 2718000
#> # … with 1,839,946 more rows
left_join(birth_df, babynames_df, by = c("year" = "year"))
#> # A tibble: 1,839,952 × 6
#>    year  births sex   name         n   prop
#>   <dbl>   <int> <chr> <chr>    <int>  <dbl>
#> 1  1909 2718000 F     Mary     19259 0.0523
#> 2  1909 2718000 F     Helen     9250 0.0251
#> 3  1909 2718000 F     Margaret  7359 0.0200
#> 4  1909 2718000 F     Ruth      6509 0.0177
#> 5  1909 2718000 F     Dorothy   6253 0.0170
#> 6  1909 2718000 F     Anna      5804 0.0158
#> # … with 1,839,946 more rows

Therefore, it’s usually easier to just always use left_join() and ignore right_join() completely.

11.2.3 Keep All Rows of Both Data Sets with full_join()

In addition to keeping any rows with a matching key in the other data frame, a full_join() will keep all rows in data set 1 that don’t have a matching key in data set 2, and will also keep all rows in data set 2 that don’t have a matching key in data set 1, filling in NA for missing values when necessary. For our example of merging babynames_df with birth_df,

full_join(babynames_df, birth_df, by = c("year" = "year"))

11.2.4 Keep Only Rows with Matching Keys with inner_join()

We can also keep only rows with matching keys with inner_join(). For this join, any row in data set 1 without a matching key in data set 2 is dropped, and any row in data set 2 without a matching key in data set 1 is also dropped.

inner_join(babynames_df, birth_df, by = c("year" = "year"))
#> # A tibble: 1,839,952 × 6
#>    year sex   name         n   prop  births
#>   <dbl> <chr> <chr>    <int>  <dbl>   <int>
#> 1  1909 F     Mary     19259 0.0523 2718000
#> 2  1909 F     Helen     9250 0.0251 2718000
#> 3  1909 F     Margaret  7359 0.0200 2718000
#> 4  1909 F     Ruth      6509 0.0177 2718000
#> 5  1909 F     Dorothy   6253 0.0170 2718000
#> 6  1909 F     Anna      5804 0.0158 2718000
#> # … with 1,839,946 more rows

11.2.5 Which xxxx_join()?

Which join function we use will depend on the context of the data and what questions you will be answering in your analysis.

Important

Most importantly, if you’re using a left_join(), right_join() or inner_join(), you’re potentially cutting out some data. It’s important to be aware of what data you’re omitting. For example, with the babynames and births data, we would want to keep a note that a left_join() removed all observations before 1909 from joined data set.

Exercise 2. Examine the following two joins that we’ve done, and explain why one resulting data set has fewer observations (rows) than the other.

left_join(babynames_df, birth_df, by = c("year" = "year"))
#> # A tibble: 1,924,665 × 6
#>    year sex   name          n   prop births
#>   <dbl> <chr> <chr>     <int>  <dbl>  <int>
#> 1  1880 F     Mary       7065 0.0724     NA
#> 2  1880 F     Anna       2604 0.0267     NA
#> 3  1880 F     Emma       2003 0.0205     NA
#> 4  1880 F     Elizabeth  1939 0.0199     NA
#> 5  1880 F     Minnie     1746 0.0179     NA
#> 6  1880 F     Margaret   1578 0.0162     NA
#> # … with 1,924,659 more rows
left_join(birth_df, babynames_df, by = c("year" = "year"))
#> # A tibble: 1,839,952 × 6
#>    year  births sex   name         n   prop
#>   <dbl>   <int> <chr> <chr>    <int>  <dbl>
#> 1  1909 2718000 F     Mary     19259 0.0523
#> 2  1909 2718000 F     Helen     9250 0.0251
#> 3  1909 2718000 F     Margaret  7359 0.0200
#> 4  1909 2718000 F     Ruth      6509 0.0177
#> 5  1909 2718000 F     Dorothy   6253 0.0170
#> 6  1909 2718000 F     Anna      5804 0.0158
#> # … with 1,839,946 more rows

11.3 Filtering Joins

Filtering joins (semi_join() and anti_join()) are useful if we would only like to keep the variables in one data set, but we want to filter out observations by a variable in the second data set.

Consider again the two data sets on men’s tennis matches in 2018 and in 2019.

atp_2019 <- read_csv(here("data/atp_matches_2019.csv"))
atp_2018 <- read_csv(here("data/atp_matches_2018.csv"))
atp_2019
#> # A tibble: 2,781 × 49
#>   tourney_id tourne…¹ surface draw_…² tourn…³ tourn…⁴ match…⁵ winne…⁶ winne…⁷
#>   <chr>      <chr>    <chr>     <dbl> <chr>     <dbl>   <dbl>   <dbl> <chr>  
#> 1 2019-M020  Brisbane Hard         32 A        2.02e7     300  105453 2      
#> 2 2019-M020  Brisbane Hard         32 A        2.02e7     299  106421 4      
#> 3 2019-M020  Brisbane Hard         32 A        2.02e7     298  105453 2      
#> 4 2019-M020  Brisbane Hard         32 A        2.02e7     297  104542 <NA>   
#> 5 2019-M020  Brisbane Hard         32 A        2.02e7     296  106421 4      
#> 6 2019-M020  Brisbane Hard         32 A        2.02e7     295  104871 <NA>   
#> # … with 2,775 more rows, 40 more variables: winner_entry <chr>,
#> #   winner_name <chr>, winner_hand <chr>, winner_ht <dbl>, winner_ioc <chr>,
#> #   winner_age <dbl>, loser_id <dbl>, loser_seed <chr>, loser_entry <chr>,
#> #   loser_name <chr>, loser_hand <chr>, loser_ht <dbl>, loser_ioc <chr>,
#> #   loser_age <dbl>, score <chr>, best_of <dbl>, round <chr>, minutes <dbl>,
#> #   w_ace <dbl>, w_df <dbl>, w_svpt <dbl>, w_1stIn <dbl>, w_1stWon <dbl>,
#> #   w_2ndWon <dbl>, w_SvGms <dbl>, w_bpSaved <dbl>, w_bpFaced <dbl>, …
atp_2018
#> # A tibble: 2,889 × 49
#>   tourney_id tourne…¹ surface draw_…² tourn…³ tourn…⁴ match…⁵ winne…⁶ winne…⁷
#>   <chr>      <chr>    <chr>     <dbl> <chr>     <dbl>   <dbl>   <dbl>   <dbl>
#> 1 2018-M020  Brisbane Hard         32 A        2.02e7     271  105992      NA
#> 2 2018-M020  Brisbane Hard         32 A        2.02e7     272  111577      NA
#> 3 2018-M020  Brisbane Hard         32 A        2.02e7     273  104797      NA
#> 4 2018-M020  Brisbane Hard         32 A        2.02e7     275  200282      NA
#> 5 2018-M020  Brisbane Hard         32 A        2.02e7     276  111581      NA
#> 6 2018-M020  Brisbane Hard         32 A        2.02e7     277  104999       8
#> # … with 2,883 more rows, 40 more variables: winner_entry <chr>,
#> #   winner_name <chr>, winner_hand <chr>, winner_ht <dbl>, winner_ioc <chr>,
#> #   winner_age <dbl>, loser_id <dbl>, loser_seed <dbl>, loser_entry <chr>,
#> #   loser_name <chr>, loser_hand <chr>, loser_ht <dbl>, loser_ioc <chr>,
#> #   loser_age <dbl>, score <chr>, best_of <dbl>, round <chr>, minutes <dbl>,
#> #   w_ace <dbl>, w_df <dbl>, w_svpt <dbl>, w_1stIn <dbl>, w_1stWon <dbl>,
#> #   w_2ndWon <dbl>, w_SvGms <dbl>, w_bpSaved <dbl>, w_bpFaced <dbl>, …

11.3.1 Filtering with semi_join()

Suppose that we only want to keep matches in 2019 where the winning player had 10 or more wins in 2018. This might be useful if we want to not consider players in 2018 that only played in a couple of matches, perhaps because they got injured or perhaps because they received a special wildcard into the draw of only one event.

To accomplish this, we can first create a data set that has the names of all of the players that won 10 or more matches in 2018, using functions that we learned from dplyr earlier in the semester:

win10 <- atp_2018 |> group_by(winner_name) |>
  summarise(nwin = n()) |> 
  filter(nwin >= 10)
win10
#> # A tibble: 93 × 2
#>   winner_name       nwin
#>   <chr>            <int>
#> 1 Adrian Mannarino    26
#> 2 Albert Ramos        21
#> 3 Alex De Minaur      29
#> 4 Alexander Zverev    58
#> 5 Aljaz Bedene        19
#> 6 Andreas Seppi       24
#> # … with 87 more rows
…
11.3.2 Filtering with anti_join()

Now suppose that we want to only keep the matches in 2019 where the winning player did not have any wins in 2018. We might think of these players as “emerging players” in 2019, players who are coming back from an injury, etc.. To do this, we can use anti_join(), which only keeps the rows in the first data set that do not have a match in the second data set.

new_winners <- anti_join(atp_2019, atp_2018,
                         by = c("winner_name" = "winner_name")) 
new_winners$winner_name

We can then examine how many wins each of these “new” (or perhaps previously injured) players had in 2019:

new_winners |> group_by(winner_name) |>
  summarise(nwin = n()) |>
  arrange(desc(nwin))
#> # A tibble: 59 × 2
#>   winner_name           nwin
#>   <chr>                <int>
#> 1 Christian Garin         32
#> 2 Juan Ignacio Londero    22
#> 3 Miomir Kecmanovic       22
#> 4 Hugo Dellien            12
#> 5 Attila Balazs            7
#> 6 Cedrik Marcel Stebe      7
#> # … with 53 more rows
…
Note

This example underscores the importance of having a key that matches exactly. Some, but not all, of the issues involved in joining these two data sets can be solved with functions in the stringr package (discussed in a few weeks). But, the underlying problem remains and, if we wanted to combine the two data sets fully, we would need to recode some of the major names by hand.

Class Exercise 3. Read in the gun violence data set, and suppose that you want to add a row to this data set that has the statistics on gun ownership and mortality rate in the District of Columbia (Washington D.C., which is in the NE region, has 16.7 deaths per 100,000 people, and a gun ownership rate of 8.7%). To do so, create a tibble() that has a single row representing D.C. and then combine your new tibble with the overall gun violence data set. Name this new data set all_df.

library(tidyverse)
mortality_df <- read_csv(here("data/gun_violence_us.csv"))

Class Exercise 4. Examine the following data sets that are in R’s base library on demographic statistics about the U.S. states and state abbreviations:

df1 <- as_tibble(state.x77)
df2 <- as_tibble(state.abb)
df1
#> # A tibble: 50 × 8
#>   Population Income Illiteracy `Life Exp` Murder `HS Grad` Frost   Area
#>        <dbl>  <dbl>      <dbl>      <dbl>  <dbl>     <dbl> <dbl>  <dbl>
#> 1       3615   3624        2.1       69.0   15.1      41.3    20  50708
#> 2        365   6315        1.5       69.3   11.3      66.7   152 566432
#> 3       2212   4530        1.8       70.6    7.8      58.1    15 113417
#> 4       2110   3378        1.9       70.7   10.1      39.9    65  51945
#> 5      21198   5114        1.1       71.7   10.3      62.6    20 156361
#> 6       2541   4884        0.7       72.1    6.8      63.9   166 103766
#> # … with 44 more rows
df2
#> # A tibble: 50 × 1
#>   value
#>   <chr>
#> 1 AL   
#> 2 AK   
#> 3 AZ   
#> 4 AR   
#> 5 CA   
#> 6 CO   
#> # … with 44 more rows
…
