…
Our end goal is to construct a plot that shows the most popular words in Beyonce's albums. This is much more challenging than it sounds because we will have to deal with the nuances of working with text data.

The `tidytext` package makes it a lot easier to work with text data in many regards. Let's use the `unnest_tokens()` functions from `tidytext` to separate the lines into individual words. We'll name this new data set `beyonce_unnest`:


```r
library(tidytext)
beyonce_unnest <- beyonce |> unnest_tokens(output = "word", input = "line")
beyonce_unnest
#> # A tibble: 164,740 × 6
#>    song_id song_name artist_id artist_name song_line word   
#>      <dbl> <chr>         <dbl> <chr>           <dbl> <chr>  
#>  1   50396 1+1             498 Beyoncé             1 if     
#>  2   50396 1+1             498 Beyoncé             1 i      
#>  3   50396 1+1             498 Beyoncé             1 ain't  
#>  4   50396 1+1             498 Beyoncé             1 got    
#>  5   50396 1+1             498 Beyoncé             1 nothing
#>  6   50396 1+1             498 Beyoncé             1 i      
#>  7   50396 1+1             498 Beyoncé             1 got    
#>  8   50396 1+1             498 Beyoncé             1 you    
#>  9   50396 1+1             498 Beyoncé             2 if     
#> 10   50396 1+1             498 Beyoncé             2 i      
#> # … with 164,730 more rows
#> # ℹ Use `print(n = ...)` to see more rows
```
We'll want to make sure that either all words are capitalized or no words are capitalized, for consistency (remember that `R` is case-sensitive). To that end, we'll modify the `word` variable and use `stringr`'s `str_to_lower()` to change all letters to lower-case:


```r
beyonce_unnest <- beyonce_unnest |> mutate(word = str_to_lower(word))
```

Let's try counting up Beyonce's most popular words from the data set we just made:


```r
beyonce_unnest |> group_by(word) |>
  summarise(n = n()) |>
  arrange(desc(n))
#> # A tibble: 6,469 × 2
#>    word      n
#>    <chr> <int>
#>  1 you    7693
#>  2 i      6669
#>  3 the    4719
#>  4 me     3774
#>  5 to     3070
#>  6 it     2999
#>  7 a      2798
#>  8 my     2676
#>  9 and    2385
#> 10 on     2344
#> # … with 6,459 more rows
#> # ℹ Use `print(n = ...)` to see more rows
```
…
```r
beyonce_stop <- anti_join(beyonce_unnest, stop_words, by = c("word" = "word"))
```

Then, we can re-make the table with the stop words removed:


```r
beyonce_sum <- beyonce_stop |> group_by(word) |>
  summarise(n = n()) |>
  arrange(desc(n)) |>
  print(n = 25)
#> # A tibble: 5,937 × 2
#>    word        n
#>    <chr>   <int>
#>  1 love     1362
#>  2 baby     1024
#>  3 girl      592
#>  4 wanna     564
#>  5 hey       499
#>  6 boy       494
#>  7 yeah      491
#>  8 feel      488
#>  9 time      452
#> 10 uh        408
#> 11 halo      383
#> 12 check     366
#> 13 tonight   342
#> 14 girls     341
#> 15 ya        327
#> 16 run       325
#> 17 crazy     308
#> 18 world     301
#> 19 body      287
#> 20 ooh       281
#> 21 ladies    269
#> 22 top       241
#> 23 gotta     240
#> 24 beyoncé   238
#> 25 night     213
#> # … with 5,912 more rows
#> # ℹ Use `print(n = ...)` to see more rows
beyonce_sum
#> # A tibble: 5,937 × 2
#>    word      n
#>    <chr> <int>
#>  1 love   1362
#>  2 baby   1024
#>  3 girl    592
#>  4 wanna   564
#>  5 hey     499
#>  6 boy     494
#>  7 yeah    491
#>  8 feel    488
#>  9 time    452
#> 10 uh      408
#> # … with 5,927 more rows
#> # ℹ Use `print(n = ...)` to see more rows
```
…
```r
sum(str_detect(med_djok_df$point, pattern = "n@"))
#> [1] 22
```

points ended in an unforced error where the ball was hit into the net.

### `stringr` Functions with `dplyr`

We can combine the `stringr` functions with `dplyr` functions that we already know and love. For example, if we are only interested in points the end in an unforced error (so points that have the `@` symbol in them), we can filter out the points that don't have an `@`:


```r
med_djok_df |> filter(str_detect(point, pattern = "@") == TRUE)
#> # A tibble: 63 × 46
#>    point Serving match…¹    Pt  Set1  Set2   Gm1   Gm2 Pts  
#>    <chr> <chr>   <chr>   <dbl> <dbl> <dbl> <dbl> <dbl> <chr>
#>  1 4f2d@ ND      202109…     1     0     0     0     0 0-0  
#>  2 6b29… ND      202109…     3     0     0     0     0 15-15
#>  3 5b37… ND      202109…     5     0     0     0     0 40-15
#>  4 4f18… ND      202109…     7     0     0     0     0 40-40
#>  5 5b28… ND      202109…     8     0     0     0     0 40-AD
#>  6 6b27… DM      202109…    13     0     0     0     1 40-15
#>  7 6b38… ND      202109…    14     0     0     0     2 0-0  
#>  8 5b28… ND      202109…    16     0     0     0     2 0-30 
#>  9 6f38… ND      202109…    17     0     0     0     2 15-30
#> 10 5b1w@ ND      202109…    28     0     0     1     3 30-0 
#> # … with 53 more rows, 37 more variables: `Gm#` <chr>,
#> #   TbSet <dbl>, `TB?` <dbl>, TBpt <lgl>, Svr <dbl>,
#> #   Ret <dbl>, `1st` <chr>, `2nd` <chr>, Notes <chr>,
#> #   `1stSV` <dbl>, `2ndSV` <dbl>, `1stIn` <dbl>,
#> #   `2ndIn` <dbl>, isAce <lgl>, isUnret <lgl>,
#> #   isRallyWinner <lgl>, isForced <lgl>, isUnforced <lgl>,
#> #   isDouble <lgl>, PtWinner <dbl>, isSvrWinner <dbl>, …
#> # ℹ Use `print(n = ...)` to see more rows, and `colnames()` to see all variable names
```
…
