…
The example we will use is an experiment  designed to assess the effects of race and sex on whether or not an employee received a callback for a job. In order to conduct the experiment, researchers randomly assigned names to resumes with each name associated with a particular race and gender, sent the resumes to employers, and recorded whether or not the resume received a callback. In addition to race, sex, and whether or not an employee received a callback, a few more variables were collected, like resume quality, whether or not the applicant had computer skills, years of experience, etc. A `1` for the `received_callback` indicates that the applicant received a callback.

You may recall this example from STAT 113: we used it to introduce a chi-square test of association. In that example and others like it, an appropriate graphic and summary statistics were provided. Here, we create these ourselves.

The data set is called `resume` in the `openintro` package: you'll need to install this package with `install.packages("openintro")`. Then, load in the data with


```r
library(openintro)
#> Loading required package: airports
#> Loading required package: cherryblossom
#> Loading required package: usdata
resume
#> # A tibble: 4,870 × 30
#>    job_ad_id job_c…¹ job_i…² job_t…³ job_f…⁴ job_e…⁵ job_o…⁶
#>        <dbl> <chr>   <chr>   <chr>     <dbl>   <dbl> <chr>  
#>  1       384 Chicago manufa… superv…      NA       1 unknown
#>  2       384 Chicago manufa… superv…      NA       1 unknown
#>  3       384 Chicago manufa… superv…      NA       1 unknown
#>  4       384 Chicago manufa… superv…      NA       1 unknown
#>  5       385 Chicago other_… secret…       0       1 nonpro…
#>  6       386 Chicago wholes… sales_…       0       1 private
#>  7       386 Chicago wholes… sales_…       0       1 private
#>  8       385 Chicago other_… secret…       0       1 nonpro…
#>  9       386 Chicago wholes… sales_…       0       1 private
#> 10       386 Chicago wholes… sales_…       0       1 private
#> # … with 4,860 more rows, 23 more variables:
#> #   job_req_any <dbl>, job_req_communication <dbl>,
#> #   job_req_education <dbl>, job_req_min_experience <chr>,
#> #   job_req_computer <dbl>, job_req_organization <dbl>,
#> #   job_req_school <chr>, received_callback <dbl>,
#> #   firstname <chr>, race <chr>, gender <chr>,
#> #   years_college <int>, college_degree <dbl>, …
#> # ℹ Use `print(n = ...)` to see more rows, and `colnames()` to see all variable names
```
…
you should notice a lot of statistics that you are familiar with from STAT 213, including `r.squared`, `adj.r.squared`, `sigma` (the residual standard error), `statistic` (the overall F-statistic), `AIC`, and `BIC`.

__`augment()`__ 

`augment()` is my personal favourite of the three. The function returns a `tibble` that contains all of the variables used to fit the model appended with commonly used diagnostic statistics like the fitted values (`.fitted)`, cook's distance (`.cooksd)`, `.hat` values for leverage, and residuals (`.resid`).


```r
augment(coffee_mod)
#> # A tibble: 1,339 × 12
#>    total_cup_…¹ species aroma flavor sweet…² moist…³ .fitted
#>           <dbl> <chr>   <dbl>  <dbl>   <dbl>   <dbl>   <dbl>
#>  1         90.6 Arabica  8.67   8.83   10       0.12    91.1
#>  2         89.9 Arabica  8.75   8.67   10       0.12    90.5
#>  3         89.8 Arabica  8.42   8.5    10       0       89.2
#>  4         89   Arabica  8.17   8.58   10       0.11    88.9
#>  5         88.8 Arabica  8.25   8.5    10       0.12    88.6
#>  6         88.8 Arabica  8.58   8.42   10       0.11    88.9
#>  7         88.8 Arabica  8.42   8.5    10       0.11    89.0
#>  8         88.7 Arabica  8.25   8.33    9.33    0.03    86.4
#>  9         88.4 Arabica  8.67   8.67    9.33    0.03    89.0
#> 10         88.2 Arabica  8.08   8.58   10       0.1     88.7
#> # … with 1,329 more rows, 5 more variables: .resid <dbl>,
#> #   .hat <dbl>, .sigma <dbl>, .cooksd <dbl>,
#> #   .std.resid <dbl>, and abbreviated variable names
#> #   ¹​total_cup_points, ²​sweetness, ³​moisture
#> # ℹ Use `print(n = ...)` to see more rows, and `colnames()` to see all variable names
```
…
or observations that are outliers:


```r
augment_df |> filter(.std.resid > 3 | .std.resid < -3)
#> # A tibble: 25 × 12
#>    total_cup_…¹ species aroma flavor sweet…² moist…³ .fitted
#>           <dbl> <chr>   <dbl>  <dbl>   <dbl>   <dbl>   <dbl>
#>  1         82.8 Arabica  8.08   8.17   10       0.12    86.6
#>  2         82.4 Arabica  5.08   7.75   10       0.11    78.6
#>  3         82.3 Arabica  7.75   8.08    6.67    0.11    78.1
#>  4         80.7 Arabica  7.67   7.5     6.67    0       75.2
#>  5         80   Arabica  7.58   7.75   10       0       83.7
#>  6         79.9 Arabica  7.83   7.67   10       0       83.8
#>  7         79.2 Arabica  7.17   7.42    6.67    0.1     73.6
#>  8         78.6 Arabica  7.92   7.58   10       0.1     83.3
#>  9         78.3 Arabica  7.17   6.08   10       0.11    74.2
#> 10         77.6 Arabica  7.58   7.67    6       0.12    74.1
#> # … with 15 more rows, 5 more variables: .resid <dbl>,
#> #   .hat <dbl>, .sigma <dbl>, .cooksd <dbl>,
#> #   .std.resid <dbl>, and abbreviated variable names
#> #   ¹​total_cup_points, ²​sweetness, ³​moisture
#> # ℹ Use `print(n = ...)` to see more rows, and `colnames()` to see all variable names
```
…
```r
hitting_list <- map(url_vec, get_hitting_data)
hitting_list
```

Scraping and performing the `wOBA` calculation will take a few seconds. The output is a list of 10 tibbles. The `bind_rows()` function that we used to stack rows of different data frames or tibbles can also be used to stack rows of data frames or tibbles given in a list. We apply the function to the scraped data and then add the name of the school to the data frame with a `left_join()`:


```r
hitting_ll <- hitting_list |> bind_rows() |>
  left_join(school_df, by = c("url_name" = "hitting_web_url"))
hitting_ll
#> # A tibble: 213 × 25
#>      `#` Player    AVG   OPS `GP-GS`    AB     R     H  `2B`
#>    <int> <chr>   <dbl> <dbl> <chr>   <int> <int> <int> <int>
#>  1     6 "Clark… 0.367 1.02  29-19      79    24    29     5
#>  2    19 "Delan… 0.33  0.817 34-34     115    18    38     5
#>  3    13 "Butle… 0.325 1.08  35-35     126    31    41     9
#>  4    30 "Watso… 0.318 0.853 35-33     110    29    35     6
#>  5     5 "Desja… 0.284 0.741 28-20      67    23    19     1
#>  6    20 "Court… 0.281 0.646 27-17      64     6    18     2
#>  7    37 "Goret… 0.268 0.771 32-32      97    18    26     6
#>  8    11 "Circe… 0.252 1.00  35-33     111    27    28     9
#>  9     8 "Forgi… 0.244 0.799 27-27      86    22    21     4
#> 10    41 "Comer… 0.222 0.582 31-21      72    16    16     0
#> # … with 203 more rows, and 16 more variables: `3B` <int>,
#> #   HR <int>, RBI <int>, TB <int>, `SLG%` <dbl>, BB <int>,
#> #   HBP <int>, SO <int>, GDP <int>, `OB%` <dbl>, SF <int>,
#> #   SH <int>, `SB-ATT` <chr>, wOBA <dbl>, url_name <chr>,
#> #   school_name <chr>
#> # ℹ Use `print(n = ...)` to see more rows, and `colnames()` to see all variable names
```

With this data set, we can now do things like figure out the top 3 hitters from each team, according to the `wOBA` metric:


```r
hitting_ll |> group_by(school_name) |>
  arrange(desc(wOBA)) |>
  slice(1:3) |>
  select(Player, school_name, wOBA)
#> # A tibble: 30 × 3
#> # Groups:   school_name [10]
#>    Player                                      schoo…¹  wOBA
#>    <chr>                                       <chr>   <dbl>
#>  1 "Toby, Jared\r\n                          … Bard    0.488
#>  2 "Dumper, Sam\r\n                          … Bard    0.475
#>  3 "Myers, Jordan\r\n                        … Bard    0.431
#>  4 "Cantor, Danny\r\n                        … Clarks… 0.805
#>  5 "Price, Grant\r\n                         … Clarks… 0.475
#>  6 "Doyle, Caleb\r\n                         … Clarks… 0.473
#>  7 "Shirley, Buzz\r\n                        … Ithaca  0.524
#>  8 "Fabbo, Louis\r\n                         … Ithaca  0.465
#>  9 "Fabian, Matt\r\n                         … Ithaca  0.428
#> 10 "Blackall, Patrick \r\n                   … RIT     0.399
#> # … with 20 more rows, and abbreviated variable name
#> #   ¹​school_name
#> # ℹ Use `print(n = ...)` to see more rows
```

or find the players on each team with the most at bats `AB`:


```r
hitting_ll |> group_by(school_name) |>
  arrange(desc(AB)) |>
  slice(1:3) |>
  select(Player, school_name, AB)
#> # A tibble: 30 × 3
#> # Groups:   school_name [10]
#>    Player                                      schoo…¹    AB
#>    <chr>                                       <chr>   <int>
#>  1 "Toby, Jared\r\n                          … Bard      107
#>  2 "Myers, Jordan\r\n                        … Bard      107
#>  3 "Luscher, Alex\r\n                        … Bard      101
#>  4 "Brouillette, Colby\r\n                   … Clarks…   127
#>  5 "Wilson, Kent\r\n                         … Clarks…   126
#>  6 "Doyle, Caleb\r\n                         … Clarks…   103
#>  7 "Pedersen, Connor\r\n                     … Ithaca    207
#>  8 "Cutaia, Nicholas\r\n                     … Ithaca    180
#>  9 "Merod, Gil\r\n                           … Ithaca    169
#> 10 "Reilly, Chris\r\n                        … RIT       152
#> # … with 20 more rows, and abbreviated variable name
#> #   ¹​school_name
#> # ℹ Use `print(n = ...)` to see more rows
```
…
```r
library(rvest)
library(tidyverse)

year_scrape <- 2021
url <- paste0("https://en.wikipedia.org/wiki/Billboard_Year-End_Hot_100_singles_of_", year_scrape)

## convert the html code into something R can read
billboard_tab <- read_html(url) |> html_nodes("table")

## grabs the tables
billboard_df <- billboard_tab[[1]] |> html_table() |>
  mutate(year = year_scrape)
billboard_df
#> # A tibble: 100 × 4
#>      No. Title                                Artist…¹  year
#>    <int> <chr>                                <chr>    <dbl>
#>  1     1 "\"Levitating\""                     Dua Lipa  2021
#>  2     2 "\"Save Your Tears\""                The Wee…  2021
#>  3     3 "\"Blinding Lights\""                The Wee…  2021
#>  4     4 "\"Mood\""                           24kGold…  2021
#>  5     5 "\"Good 4 U\""                       Olivia …  2021
#>  6     6 "\"Kiss Me More\""                   Doja Ca…  2021
#>  7     7 "\"Leave the Door Open\""            Silk So…  2021
#>  8     8 "\"Drivers License\""                Olivia …  2021
#>  9     9 "\"Montero (Call Me by Your Name)\"" Lil Nas…  2021
#> 10    10 "\"Peaches\""                        Justin …  2021
#> # … with 90 more rows, and abbreviated variable name
#> #   ¹​`Artist(s)`
#> # ℹ Use `print(n = ...)` to see more rows
```
…
