DATA / STAT 234 - 15 Connections to STAT 113, STAT 213, and CS 140
…
You may recall this example from STAT 113: we used it to introduce a chi-square test of association. In that example and others like it, an appropriate graphic and summary statistics were provided. Here, we create these ourselves.

The data set is called resume in the openintro package: you’ll need to install this package with install.packages("openintro"). Then, load in the data with

library(openintro)

Loading required package: airports

Loading required package: cherryblossom

Loading required package: usdata

resume

# A tibble: 4,870 × 30
   job_ad_id job_city job_indu…¹ job_t…² job_f…³ job_e…⁴ job_o…⁵ job_r…⁶ job_r…⁷
       <dbl> <chr>    <chr>      <chr>     <dbl>   <dbl> <chr>     <dbl>   <dbl>
 1       384 Chicago  manufactu… superv…      NA       1 unknown       1       0
 2       384 Chicago  manufactu… superv…      NA       1 unknown       1       0
 3       384 Chicago  manufactu… superv…      NA       1 unknown       1       0
 4       384 Chicago  manufactu… superv…      NA       1 unknown       1       0
 5       385 Chicago  other_ser… secret…       0       1 nonpro…       1       0
 6       386 Chicago  wholesale… sales_…       0       1 private       0       0
 7       386 Chicago  wholesale… sales_…       0       1 private       0       0
 8       385 Chicago  other_ser… secret…       0       1 nonpro…       1       0
 9       386 Chicago  wholesale… sales_…       0       1 private       0       0
10       386 Chicago  wholesale… sales_…       0       1 private       0       0
# … with 4,860 more rows, 21 more variables: job_req_education <dbl>,
#   job_req_min_experience <chr>, job_req_computer <dbl>,
#   job_req_organization <dbl>, job_req_school <chr>, received_callback <dbl>,
#   firstname <chr>, race <chr>, gender <chr>, years_college <int>,
#   college_degree <dbl>, honors <int>, worked_during_school <int>,
#   years_experience <int>, computer_skills <int>, special_skills <int>,
#   volunteer <int>, military <int>, employment_holes <int>, …
…
you should notice a lot of statistics that you are familiar with from STAT 213, including r.squared, adj.r.squared, sigma (the residual standard error), statistic (the overall F-statistic), AIC, and BIC.

augment()

augment() is my personal favourite of the three. The function returns a tibble that contains all of the variables used to fit the model appended with commonly used diagnostic statistics like the fitted values (.fitted), cook’s distance (.cooksd), .hat values for leverage, and residuals (.resid).

augment(coffee_mod)

# A tibble: 1,339 × 12
   total_c…¹ species aroma flavor sweet…² moist…³ .fitted  .resid    .hat .sigma
       <dbl> <chr>   <dbl>  <dbl>   <dbl>   <dbl>   <dbl>   <dbl>   <dbl>  <dbl>
 1      90.6 Arabica  8.67   8.83   10       0.12    91.1 -0.537  0.0112    1.17
 2      89.9 Arabica  8.75   8.67   10       0.12    90.5 -0.538  0.0103    1.17
 3      89.8 Arabica  8.42   8.5    10       0       89.2  0.577  0.00745   1.17
 4      89   Arabica  8.17   8.58   10       0.11    88.9  0.114  0.00784   1.17
 5      88.8 Arabica  8.25   8.5    10       0.12    88.6  0.214  0.00669   1.17
 6      88.8 Arabica  8.58   8.42   10       0.11    88.9 -0.0411 0.00726   1.17
 7      88.8 Arabica  8.42   8.5    10       0.11    89.0 -0.216  0.00655   1.17
 8      88.7 Arabica  8.25   8.33    9.33    0.03    86.4  2.25   0.00728   1.17
 9      88.4 Arabica  8.67   8.67    9.33    0.03    89.0 -0.550  0.0122    1.17
10      88.2 Arabica  8.08   8.58   10       0.1     88.7 -0.479  0.00826   1.17
# … with 1,329 more rows, 2 more variables: .cooksd <dbl>, .std.resid <dbl>,
#   and abbreviated variable names ¹​total_cup_points, ²​sweetness, ³​moisture
…
augment_df |> filter(.hat > 0.2)

# A tibble: 2 × 12
  total_cup_p…¹ species aroma flavor sweet…² moist…³ .fitted .resid  .hat .sigma
          <dbl> <chr>   <dbl>  <dbl>   <dbl>   <dbl>   <dbl>  <dbl> <dbl>  <dbl>
1          59.8 Arabica   7.5   6.67    1.33    0.1    58.4    1.38 0.223   1.17
2           0   Arabica   0     0       0       0.12    6.81  -6.81 0.430   1.14
# … with 2 more variables: .cooksd <dbl>, .std.resid <dbl>, and abbreviated
#   variable names ¹​total_cup_points, ²​sweetness, ³​moisture

or observations that are outliers:

augment_df |> filter(.std.resid > 3 | .std.resid < -3)

# A tibble: 25 × 12
   total_cu…¹ species aroma flavor sweet…² moist…³ .fitted .resid    .hat .sigma
        <dbl> <chr>   <dbl>  <dbl>   <dbl>   <dbl>   <dbl>  <dbl>   <dbl>  <dbl>
 1       82.8 Arabica  8.08   8.17   10       0.12    86.6  -3.85 0.00359   1.16
 2       82.4 Arabica  5.08   7.75   10       0.11    78.6   3.79 0.111     1.16
 3       82.3 Arabica  7.75   8.08    6.67    0.11    78.1   4.27 0.0421    1.16
 4       80.7 Arabica  7.67   7.5     6.67    0       75.2   5.51 0.0347    1.16
 5       80   Arabica  7.58   7.75   10       0       83.7  -3.71 0.00388   1.16
 6       79.9 Arabica  7.83   7.67   10       0       83.8  -3.87 0.00365   1.16
 7       79.2 Arabica  7.17   7.42    6.67    0.1     73.6   5.58 0.0337    1.16
 8       78.6 Arabica  7.92   7.58   10       0.1     83.3  -4.74 0.00232   1.16
 9       78.3 Arabica  7.17   6.08   10       0.11    74.2   4.13 0.0199    1.16
10       77.6 Arabica  7.58   7.67    6       0.12    74.1   3.46 0.0518    1.16
# … with 15 more rows, 2 more variables: .cooksd <dbl>, .std.resid <dbl>, and
#   abbreviated variable names ¹​total_cup_points, ²​sweetness, ³​moisture
…
Attaching package: 'modelr'

The following object is masked from 'package:broom':

    bootstrap

grid_vals <- coffee_noout |>
  modelr::data_grid(
    flavor = quantile(flavor),
    aroma = quantile(aroma)
  )
grid_vals

# A tibble: 25 × 2
   flavor aroma
    <dbl> <dbl>
 1   6.08  5.08
 2   6.08  7.42
 3   6.08  7.58
 4   6.08  7.75
 5   6.08  8.75
 6   7.33  5.08
 7   7.33  7.42
 8   7.33  7.58
 9   7.33  7.75
10   7.33  8.75
# … with 15 more rows

We then gather these predictions in a data set, and use that data set to make the lines in our plot. The plot will show total_cup_points on the y-axis, flavor on the x-axis, and have coloured lines for a few different values of aroma that we specified in the grid function:

grid <- grid_vals |>
  modelr::gather_predictions(coffee_fa)
grid

# A tibble: 25 × 4
   model     flavor aroma  pred
   <chr>      <dbl> <dbl> <dbl>
 1 coffee_fa   6.08  5.08  70.7
 2 coffee_fa   6.08  7.42  73.9
 3 coffee_fa   6.08  7.58  74.1
 4 coffee_fa   6.08  7.75  74.4
 5 coffee_fa   6.08  8.75  75.8
 6 coffee_fa   7.33  5.08  77.6
 7 coffee_fa   7.33  7.42  80.9
 8 coffee_fa   7.33  7.58  81.1
 9 coffee_fa   7.33  7.75  81.3
10 coffee_fa   7.33  8.75  82.7
# … with 15 more rows
…
url_vec <- school_df$hitting_web_url

Then, we apply map() with the first argument being the url_vec and the second argument being the function get_hitting_data() that we wrote earlier.

hitting_list <- map(url_vec, get_hitting_data)
hitting_list

Scraping and performing the wOBA calculation will take a few seconds. The output is a list of 10 tibbles. The bind_rows() function that we used to stack rows of different data frames or tibbles can also be used to stack rows of data frames or tibbles given in a list. We apply the function to the scraped data and then add the name of the school to the data frame with a left_join():

hitting_ll <- hitting_list |> bind_rows() |>
  left_join(school_df, by = c("url_name" = "hitting_web_url"))
hitting_ll

# A tibble: 213 × 25
     `#` Player      AVG   OPS `GP-GS`    AB     R     H  `2B`  `3B`    HR   RBI
   <int> <chr>     <dbl> <dbl> <chr>   <int> <int> <int> <int> <int> <int> <int>
 1     6 "Clark, … 0.367 1.02  29-19      79    24    29     5     2     3    23
 2    19 "Delaney… 0.33  0.817 34-34     115    18    38     5     1     1    24
 3    13 "Butler,… 0.325 1.08  35-35     126    31    41     9     5     7    36
 4    30 "Watson,… 0.318 0.853 35-33     110    29    35     6     0     1    20
 5     5 "Desjard… 0.284 0.741 28-20      67    23    19     1     0     0     9
 6    20 "Courtwr… 0.281 0.646 27-17      64     6    18     2     0     0    13
 7    37 "Goretti… 0.268 0.771 32-32      97    18    26     6     3     0    14
 8    11 "Circell… 0.252 1.00  35-33     111    27    28     9     0    11    35
 9     8 "Forgion… 0.244 0.799 27-27      86    22    21     4     0     4    17
10    41 "Comerfo… 0.222 0.582 31-21      72    16    16     0     0     0     6
# … with 203 more rows, and 13 more variables: TB <int>, `SLG%` <dbl>,
#   BB <int>, HBP <int>, SO <int>, GDP <int>, `OB%` <dbl>, SF <int>, SH <int>,
#   `SB-ATT` <chr>, wOBA <dbl>, url_name <chr>, school_name <chr>

With this data set, we can now do things like figure out the top 3 hitters from each team, according to the wOBA metric:

hitting_ll |> group_by(school_name) |>
  arrange(desc(wOBA)) |>
  slice(1:3) |>
  select(Player, school_name, wOBA)

# A tibble: 30 × 3
# Groups:   school_name [10]
   Player                                                          schoo…¹  wOBA
   <chr>                                                           <chr>   <dbl>
 1 "Toby, Jared\r\n                                              … Bard    0.488
 2 "Dumper, Sam\r\n                                              … Bard    0.475
 3 "Myers, Jordan\r\n                                            … Bard    0.431
 4 "Cantor, Danny\r\n                                            … Clarks… 0.805
 5 "Price, Grant\r\n                                             … Clarks… 0.475
 6 "Doyle, Caleb\r\n                                             … Clarks… 0.473
 7 "Shirley, Buzz\r\n                                            … Ithaca  0.524
 8 "Fabbo, Louis\r\n                                             … Ithaca  0.465
 9 "Fabian, Matt\r\n                                             … Ithaca  0.428
10 "Blackall, Patrick \r\n                                       … RIT     0.399
# … with 20 more rows, and abbreviated variable name ¹​school_name

or find the players on each team with the most at bats AB:

hitting_ll |> group_by(school_name) |>
  arrange(desc(AB)) |>
  slice(1:3) |>
  select(Player, school_name, AB)

# A tibble: 30 × 3
# Groups:   school_name [10]
   Player                                                          schoo…¹    AB
   <chr>                                                           <chr>   <int>
 1 "Toby, Jared\r\n                                              … Bard      107
 2 "Myers, Jordan\r\n                                            … Bard      107
 3 "Luscher, Alex\r\n                                            … Bard      101
 4 "Brouillette, Colby\r\n                                       … Clarks…   127
 5 "Wilson, Kent\r\n                                             … Clarks…   126
 6 "Doyle, Caleb\r\n                                             … Clarks…   103
 7 "Pedersen, Connor\r\n                                         … Ithaca    207
 8 "Cutaia, Nicholas\r\n                                         … Ithaca    180
 9 "Merod, Gil\r\n                                               … Ithaca    169
10 "Reilly, Chris\r\n                                            … RIT       152
# … with 20 more rows, and abbreviated variable name ¹​school_name
…
library(rvest)
library(tidyverse)

year_scrape <- 2021
url <- paste0("https://en.wikipedia.org/wiki/Billboard_Year-End_Hot_100_singles_of_", year_scrape)

## convert the html code into something R can read
billboard_tab <- read_html(url) |> html_nodes("table")

## grabs the tables
billboard_df <- billboard_tab[[1]] |> html_table() |>
  mutate(year = year_scrape)
billboard_df

# A tibble: 100 × 4
     No. Title                                `Artist(s)`                   year
   <int> <chr>                                <chr>                        <dbl>
 1     1 "\"Levitating\""                     Dua Lipa                      2021
 2     2 "\"Save Your Tears\""                The Weeknd and Ariana Grande  2021
 3     3 "\"Blinding Lights\""                The Weeknd                    2021
 4     4 "\"Mood\""                           24kGoldn featuring Iann Dior  2021
 5     5 "\"Good 4 U\""                       Olivia Rodrigo                2021
 6     6 "\"Kiss Me More\""                   Doja Cat featuring SZA        2021
 7     7 "\"Leave the Door Open\""            Silk Sonic (Bruno Mars and …  2021
 8     8 "\"Drivers License\""                Olivia Rodrigo                2021
 9     9 "\"Montero (Call Me by Your Name)\"" Lil Nas X                     2021
10    10 "\"Peaches\""                        Justin Bieber featuring Dan…  2021
# … with 90 more rows
…
