…
sql <- "
  SELECT surface, winner_name, loser_name, w_ace, l_ace, minutes
  FROM tennis2019 
  WHERE minutes > 240
"
dbGetQuery(con, sql)|>
  as_tibble()
#> # A tibble: 30 × 6
#>    surface winner_name           loser…¹ w_ace l_ace minutes
#>    <chr>   <chr>                 <chr>   <int> <int>   <int>
#>  1 Hard    Joao Sousa            Guido …    19    18     241
#>  2 Hard    Jeremy Chardy         Ugo Hu…    29    20     244
#>  3 Hard    Roberto Bautista Agut Andy M…     7    19     249
#>  4 Hard    Joao Sousa            Philip…    28    20     258
#>  5 Hard    Alex Bolt             Gilles…    11    14     244
#>  6 Hard    Milos Raonic          Stan W…    39    28     241
#>  7 Hard    Marin Cilic           Fernan…     8    27     258
#>  8 Hard    Kei Nishikori         Pablo …    15     5     305
#>  9 Hard    Frances Tiafoe        David …     3    11     244
#> 10 Clay    Alexander Zverev      John M…    17     0     248
#> # … with 20 more rows, and abbreviated variable name
#> #   ¹​loser_name
#> # ℹ Use `print(n = ...)` to see more rows
```
…
We should note that the result is still a database object: it's not our "usual" `tibble`. One major difference between the database object and the usual `tibble` is that our `tennis_query1` does not tell us how many rows are in the data (see the `??` and the specification `with more rows`). The code that we wrote is not actually looking in the entire data set for matches that are longer than 240 minutes: it is saving time by only performing our query on part of the database table. This is very useful behaviour for database tables that are very, very large, where code might take a long time to run. 

If we want to obtain the result of our query as a `tibble`, we can use the `collect()` function:


```r
tennis_query1 |>
  collect()
#> # A tibble: 30 × 4
#>    minutes winner_name           loser_name          tourn…¹
#>      <int> <chr>                 <chr>               <chr>  
#>  1     241 Joao Sousa            Guido Pella         Austra…
#>  2     244 Jeremy Chardy         Ugo Humbert         Austra…
#>  3     249 Roberto Bautista Agut Andy Murray         Austra…
#>  4     258 Joao Sousa            Philipp Kohlschrei… Austra…
#>  5     244 Alex Bolt             Gilles Simon        Austra…
#>  6     241 Milos Raonic          Stan Wawrinka       Austra…
#>  7     258 Marin Cilic           Fernando Verdasco   Austra…
#>  8     305 Kei Nishikori         Pablo Carreno Busta Austra…
#>  9     244 Frances Tiafoe        David Goffin        Miami …
#> 10     248 Alexander Zverev      John Millman        Roland…
#> # … with 20 more rows, and abbreviated variable name
#> #   ¹​tourney_name
#> # ℹ Use `print(n = ...)` to see more rows
```
…
```r
tennis_db |> mutate(tourney_name_reorder = fct_reorder(tourney_name, 
                                                       draw_size))
```

The result is an error. Only functions compatible with the `dbplyr` package can be used on a database table. Functions specific to `R`, like those in `lubridate` and `forcats` cannot work until we `collect()` the database table into a data frame or tibble:


```r
tennis_db |> collect() |>
  mutate(tourney_name_reorder = fct_reorder(tourney_name, 
                                                       draw_size))
#> # A tibble: 2,781 × 50
#>    tourney…¹ tourn…² surface draw_…³ tourn…⁴ tourn…⁵ match…⁶
#>    <chr>     <chr>   <chr>     <int> <chr>     <int>   <int>
#>  1 2019-M020 Brisba… Hard         32 A        2.02e7     300
#>  2 2019-M020 Brisba… Hard         32 A        2.02e7     299
#>  3 2019-M020 Brisba… Hard         32 A        2.02e7     298
#>  4 2019-M020 Brisba… Hard         32 A        2.02e7     297
#>  5 2019-M020 Brisba… Hard         32 A        2.02e7     296
#>  6 2019-M020 Brisba… Hard         32 A        2.02e7     295
#>  7 2019-M020 Brisba… Hard         32 A        2.02e7     294
#>  8 2019-M020 Brisba… Hard         32 A        2.02e7     293
#>  9 2019-M020 Brisba… Hard         32 A        2.02e7     292
#> 10 2019-M020 Brisba… Hard         32 A        2.02e7     291
#> # … with 2,771 more rows, 43 more variables:
#> #   winner_id <int>, winner_seed <chr>, winner_entry <chr>,
#> #   winner_name <chr>, winner_hand <chr>, winner_ht <int>,
#> #   winner_ioc <chr>, winner_age <dbl>, loser_id <int>,
#> #   loser_seed <chr>, loser_entry <chr>, loser_name <chr>,
#> #   loser_hand <chr>, loser_ht <int>, loser_ioc <chr>,
#> #   loser_age <dbl>, score <chr>, best_of <int>, …
#> # ℹ Use `print(n = ...)` to see more rows, and `colnames()` to see all variable names
```
…
