DATA / STAT 234 - 16 Introduction to SQL with dbplyr
…
Note that, in many practical situations, the data tables will already exist in the database you are working with, so the step of duckdb_read_csv() would not be necessary.

To use raw SQL code and query the database that we just created, we can create a string of SQL code, name it sql, and pass it to the dbGetQuery() function. We also load in the tidyverse package here to use the as_tibble() function to convert the data.frame to a tibble.

library(tidyverse)

sql <- "
  SELECT surface, winner_name, loser_name, w_ace, l_ace, minutes
  FROM tennis2019 
  WHERE minutes > 240
"
dbGetQuery(con, sql)|>
  as_tibble()
#> # A tibble: 30 × 6
#>   surface winner_name           loser_name            w_ace l_ace minutes
#>   <chr>   <chr>                 <chr>                 <int> <int>   <int>
#> 1 Hard    Joao Sousa            Guido Pella              19    18     241
#> 2 Hard    Jeremy Chardy         Ugo Humbert              29    20     244
#> 3 Hard    Roberto Bautista Agut Andy Murray               7    19     249
#> 4 Hard    Joao Sousa            Philipp Kohlschreiber    28    20     258
#> 5 Hard    Alex Bolt             Gilles Simon             11    14     244
#> 6 Hard    Milos Raonic          Stan Wawrinka            39    28     241
#> # … with 24 more rows
…
We should note that the result is still a database object: it’s not our “usual” tibble. One major difference between the database object and the usual tibble is that our tennis_query1 does not tell us how many rows are in the data (see the ?? and the specification with more rows). The code that we wrote is not actually looking in the entire data set for matches that are longer than 240 minutes: it is saving time by only performing our query on part of the database table. This is very useful behaviour for database tables that are very, very large, where code might take a long time to run.

If we want to obtain the result of our query as a tibble, we can use the collect() function:

tennis_query1 |>
  collect()
#> # A tibble: 30 × 4
#>   minutes winner_name           loser_name            tourney_name   
#>     <int> <chr>                 <chr>                 <chr>          
#> 1     241 Joao Sousa            Guido Pella           Australian Open
#> 2     244 Jeremy Chardy         Ugo Humbert           Australian Open
#> 3     249 Roberto Bautista Agut Andy Murray           Australian Open
#> 4     258 Joao Sousa            Philipp Kohlschreiber Australian Open
#> 5     244 Alex Bolt             Gilles Simon          Australian Open
#> 6     241 Milos Raonic          Stan Wawrinka         Australian Open
#> # … with 24 more rows
…
