DATA / STAT 234 - 16 Introduction to SQL with dbplyr
…
sql <- "
  SELECT surface, winner_name, loser_name, w_ace, l_ace, minutes
  FROM tennis2019 
  WHERE minutes > 240
"
dbGetQuery(con, sql)|>
  as_tibble()

# A tibble: 30 × 6
   surface winner_name           loser_name            w_ace l_ace minutes
   <chr>   <chr>                 <chr>                 <int> <int>   <int>
 1 Hard    Joao Sousa            Guido Pella              19    18     241
 2 Hard    Jeremy Chardy         Ugo Humbert              29    20     244
 3 Hard    Roberto Bautista Agut Andy Murray               7    19     249
 4 Hard    Joao Sousa            Philipp Kohlschreiber    28    20     258
 5 Hard    Alex Bolt             Gilles Simon             11    14     244
 6 Hard    Milos Raonic          Stan Wawrinka            39    28     241
 7 Hard    Marin Cilic           Fernando Verdasco         8    27     258
 8 Hard    Kei Nishikori         Pablo Carreno Busta      15     5     305
 9 Hard    Frances Tiafoe        David Goffin              3    11     244
10 Clay    Alexander Zverev      John Millman             17     0     248
# … with 20 more rows
…
We should note that the result is still a database object: it’s not our “usual” tibble. One major difference between the database object and the usual tibble is that our tennis_query1 does not tell us how many rows are in the data (see the ?? and the specification with more rows). The code that we wrote is not actually looking in the entire data set for matches that are longer than 240 minutes: it is saving time by only performing our query on part of the database table. This is very useful behaviour for database tables that are very, very large, where code might take a long time to run.

If we want to obtain the result of our query as a tibble, we can use the collect() function:

tennis_query1 |>
  collect()

# A tibble: 30 × 4
   minutes winner_name           loser_name            tourney_name   
     <int> <chr>                 <chr>                 <chr>          
 1     241 Joao Sousa            Guido Pella           Australian Open
 2     244 Jeremy Chardy         Ugo Humbert           Australian Open
 3     249 Roberto Bautista Agut Andy Murray           Australian Open
 4     258 Joao Sousa            Philipp Kohlschreiber Australian Open
 5     244 Alex Bolt             Gilles Simon          Australian Open
 6     241 Milos Raonic          Stan Wawrinka         Australian Open
 7     258 Marin Cilic           Fernando Verdasco     Australian Open
 8     305 Kei Nishikori         Pablo Carreno Busta   Australian Open
 9     244 Frances Tiafoe        David Goffin          Miami Masters  
10     248 Alexander Zverev      John Millman          Roland Garros  
# … with 20 more rows
…
16.5.4 Chapter Exercises S

* Try to run a function from lubridate or forcats on tennis_db with mutate(). Does the function work? Did you expect it to work?

tennis_db |> mutate(tourney_name_reorder = fct_reorder(tourney_name, 
                                                       draw_size))

The result is an error. Only functions compatible with the dbplyr package can be used on a database table. Functions specific to R, like those in lubridate and forcats cannot work until we collect() the database table into a data frame or tibble:

tennis_db |> collect() |>
  mutate(tourney_name_reorder = fct_reorder(tourney_name, 
                                                       draw_size))

# A tibble: 2,781 × 50
   tourney_id tourney_…¹ surface draw_…² tourn…³ tourn…⁴ match…⁵ winne…⁶ winne…⁷
   <chr>      <chr>      <chr>     <int> <chr>     <int>   <int>   <int> <chr>  
 1 2019-M020  Brisbane   Hard         32 A        2.02e7     300  105453 2      
 2 2019-M020  Brisbane   Hard         32 A        2.02e7     299  106421 4      
 3 2019-M020  Brisbane   Hard         32 A        2.02e7     298  105453 2      
 4 2019-M020  Brisbane   Hard         32 A        2.02e7     297  104542 <NA>   
 5 2019-M020  Brisbane   Hard         32 A        2.02e7     296  106421 4      
 6 2019-M020  Brisbane   Hard         32 A        2.02e7     295  104871 <NA>   
 7 2019-M020  Brisbane   Hard         32 A        2.02e7     294  105453 2      
 8 2019-M020  Brisbane   Hard         32 A        2.02e7     293  104542 <NA>   
 9 2019-M020  Brisbane   Hard         32 A        2.02e7     292  200282 7      
10 2019-M020  Brisbane   Hard         32 A        2.02e7     291  106421 4      
# … with 2,771 more rows, 41 more variables: winner_entry <chr>,
#   winner_name <chr>, winner_hand <chr>, winner_ht <int>, winner_ioc <chr>,
#   winner_age <dbl>, loser_id <int>, loser_seed <chr>, loser_entry <chr>,
#   loser_name <chr>, loser_hand <chr>, loser_ht <int>, loser_ioc <chr>,
#   loser_age <dbl>, score <chr>, best_of <int>, round <chr>, minutes <int>,
#   w_ace <int>, w_df <int>, w_svpt <int>, w_1stIn <int>, w_1stWon <int>,
#   w_2ndWon <int>, w_SvGms <int>, w_bpSaved <int>, w_bpFaced <int>, …
…
