13 Dates with lubridate | STAT 234: Data Science
…
13.2.2 yday() and wday()

The yday() function grabs the day of the year from a <date> object. For example,

test <- mdy("November 4, 2020")
yday(test)
#> [1] 309

returns 309, indicating that November 4th is the 309th day of the year 2020. Using this function in a mutate() statement creates a new variable that has yday for each observation:

stocks_long |> mutate(day_in_year = yday(start_date))
#> # A tibble: 10,444 × 4
#>    start_date Stock_Type Price day_in_year
#>    <date>     <fct>      <dbl>       <dbl>
#>  1 2011-01-03 Apple       10.0           3
#>  2 2011-01-03 Nintendo    36.7           3
#>  3 2011-01-03 Chipotle   224.            3
#>  4 2011-01-03 S & P 500  102.            3
#>  5 2011-01-04 Apple       10.1           4
#>  6 2011-01-04 Nintendo    35.5           4
#>  7 2011-01-04 Chipotle   222.            4
#>  8 2011-01-04 S & P 500  102.            4
#>  9 2011-01-05 Apple       10.2           5
#> 10 2011-01-05 Nintendo    34.6           5
#> # … with 10,434 more rows
#> # ℹ Use `print(n = ...)` to see more rows
…
truncates the year (which is given as 0000). The truncate function is usually most useful in the context of the first example with a truncated month and/or day.

Examine the ds_google.csv, which contains

Month, the year and month from 2004 to now

Data_Science, the relative popularity of data science (Google keeps how it calculates “popularity” as somewhat of a mystery but it is likely based off of the number of times people search for the term “Data Science”)

library(tidyverse)
library(lubridate)
ds_df <- read_csv(here("data/ds_google.csv"))
ds_df
#> # A tibble: 202 × 2
#>    Month   Data_Science
#>    <chr>          <dbl>
#>  1 2004-01           14
#>  2 2004-02            8
#>  3 2004-03           16
#>  4 2004-04           11
#>  5 2004-05            5
#>  6 2004-06            8
#>  7 2004-07            7
#>  8 2004-08            9
#>  9 2004-09           13
#> 10 2004-10           11
#> # … with 192 more rows
#> # ℹ Use `print(n = ...)` to see more rows
…
