4 Wrangling with dplyr | STAT 234: Data Science
…
The second data set that we will use has 27 observations, one for each of SLU’s majors and contains 3 variables:

Major, the name of the major.

nfemales, the number of female graduates in that major from 2015 - 2019.

nmales, the number of male graduates in that major from 2015 - 2019.

The data has kindly been provided by Dr. Ramler. With your Notes R Project open, you can read in the data set with

library(tidyverse)
slumajors_df <- read_csv("data/SLU_Majors_15_19.csv")
slumajors_df
#> # A tibble: 27 × 3
#>    Major                        nfemales nmales
#>    <chr>                           <dbl>  <dbl>
#>  1 Anthropology                       34     15
#>  2 Art & Art History                  65     11
#>  3 Biochemistry                       14     11
#>  4 Biology                           162     67
#>  5 Business in the Liberal Arts      135    251
#>  6 Chemistry                          26     14
#>  7 Computer Science                   21     47
#>  8 Conservation Biology               38     20
#>  9 Economics                         128    349
#> 10 English                           131     54
#> # … with 17 more rows
#> # ℹ Use `print(n = ...)` to see more rows
…
R understands the following symbols:

+ for addition, - for subtraction

* for multiplication, / for division

^ for raising something to a power (3 ^ 2 is equal to 9)

R also does the same order of operations as usual: parentheses, then exponents, then multiplication and division, then addition and subtraction.

For example, suppose that we want to create a variable in slumajors_df that has the total number of students graduating in each major. We can do this with mutate():

slumajors_df |> mutate(ntotal = nfemales + nmales)
#> # A tibble: 27 × 4
#>    Major                        nfemales nmales ntotal
#>    <chr>                           <dbl>  <dbl>  <dbl>
#>  1 Anthropology                       34     15     49
#>  2 Art & Art History                  65     11     76
#>  3 Biochemistry                       14     11     25
#>  4 Biology                           162     67    229
#>  5 Business in the Liberal Arts      135    251    386
#>  6 Chemistry                          26     14     40
#>  7 Computer Science                   21     47     68
#>  8 Conservation Biology               38     20     58
#>  9 Economics                         128    349    477
#> 10 English                           131     54    185
#> # … with 17 more rows
#> # ℹ Use `print(n = ...)` to see more rows
…
Take slumajors_df and with slumajors_df,

perform a mutate() step to create the new variable called ntotal, which is nfemales plus nmales.

Since this is our first time using mutate(), let’s also delve into what the function is doing. In general, mutate() reads:

mutate(name_of_new_variable = operations_on_old_variables).

R just automatically assumes that you want to do the operation for every single row in the data set, which is often quite convenient!

We might also want to create a variable that is the percentage of students identifying as female for each major:

slumajors_df |>
  mutate(percfemale = 100 * nfemales / (nfemales + nmales))
#> # A tibble: 27 × 4
#>    Major                        nfemales nmales percfemale
#>    <chr>                           <dbl>  <dbl>      <dbl>
#>  1 Anthropology                       34     15       69.4
#>  2 Art & Art History                  65     11       85.5
#>  3 Biochemistry                       14     11       56  
#>  4 Biology                           162     67       70.7
#>  5 Business in the Liberal Arts      135    251       35.0
#>  6 Chemistry                          26     14       65  
#>  7 Computer Science                   21     47       30.9
#>  8 Conservation Biology               38     20       65.5
#>  9 Economics                         128    349       26.8
#> 10 English                           131     54       70.8
#> # … with 17 more rows
#> # ℹ Use `print(n = ...)` to see more rows
…
4.1.1 if_else() and case_when()

Suppose that you want to make a new variable that is conditional on another variable (or more than one variable) in the data set. Then we would typically use mutate() coupled with

if_else() if your new variable is created on only one condition

case_when() if your new variable is created on more than one condition

Suppose we want to create a new variable that tells us whether or not the Major has a majority of Women. That is, we want this new variable, morewomen to be "Yes" if the Major has more than 50% women and "No" if it has 50% or less.

slumajors_df |> mutate(morewomen = if_else(percfemale > 50,
                                            true = "Yes",
                                            false = "No"))
#> # A tibble: 27 × 6
#>    Major               nfema…¹ nmales percf…² ntotal morew…³
#>    <chr>                 <dbl>  <dbl>   <dbl>  <dbl> <chr>  
#>  1 Anthropology             34     15    69.4     49 Yes    
#>  2 Art & Art History        65     11    85.5     76 Yes    
#>  3 Biochemistry             14     11    56       25 Yes    
#>  4 Biology                 162     67    70.7    229 Yes    
#>  5 Business in the Li…     135    251    35.0    386 No     
#>  6 Chemistry                26     14    65       40 Yes    
#>  7 Computer Science         21     47    30.9     68 No     
#>  8 Conservation Biolo…      38     20    65.5     58 Yes    
#>  9 Economics               128    349    26.8    477 No     
#> 10 English                 131     54    70.8    185 Yes    
#> # … with 17 more rows, and abbreviated variable names
#> #   ¹​nfemales, ²​percfemale, ³​morewomen
#> # ℹ Use `print(n = ...)` to see more rows

The mutate() statement reads: create a new variable called morewomen that is equal to "Yes" if percfemale > 50 is true and is equal to "No" if perfemale is not > 0.5. The first argument is the condition, the second is what to name the new variable when the condition holds, and the third is what to name the variable if the condition does not hold.

We use conditions all of the time in every day life. For example, New York had a quarantine order stating that people coming from 22 states in July 2020 would need to quarantine. In terms of a condition, this would read “if you are traveling to New York from one of the 22 states, then you need to quarantine for 2 weeks. Else, if not, then you don’t need to quarantine.” The trick in using these conditions in R is getting used to the syntax of the code.

We can see from the above set up that if we had more than one condition, then we’d need to use a different function (or use nested if_else() statements, which can be a nightmare to read). If we have more than one condition for creating the new variable, we will use case_when().

For example, when looking at the output, we see that Biochemistry has 56% female graduates. That’s “about” a 50/50 split, so suppose we want a variable called large_majority that is “female” when the percent women is 70 or more, “male” when the percent women is 30 or less, and “none” when the percent female is between 30 and 70.

slumajors_df |> mutate(large_majority =
                          case_when(percfemale >= 70 ~ "female",
                                    percfemale <= 30 ~ "male",
                                    percfemale > 30 & percfemale < 70 ~ "none")) 
#> # A tibble: 27 × 6
#>    Major               nfema…¹ nmales percf…² ntotal large…³
#>    <chr>                 <dbl>  <dbl>   <dbl>  <dbl> <chr>  
#>  1 Anthropology             34     15    69.4     49 none   
#>  2 Art & Art History        65     11    85.5     76 female 
#>  3 Biochemistry             14     11    56       25 none   
#>  4 Biology                 162     67    70.7    229 female 
#>  5 Business in the Li…     135    251    35.0    386 none   
#>  6 Chemistry                26     14    65       40 none   
#>  7 Computer Science         21     47    30.9     68 none   
#>  8 Conservation Biolo…      38     20    65.5     58 none   
#>  9 Economics               128    349    26.8    477 male   
#> 10 English                 131     54    70.8    185 female 
#> # … with 17 more rows, and abbreviated variable names
#> #   ¹​nfemales, ²​percfemale, ³​large_majority
#> # ℹ Use `print(n = ...)` to see more rows
…
* Investigate what happens with case_when() when you give overlapping conditions and when you give conditions that don’t cover all observations. For overlapping conditions, create a variable testcase that is "Yes" when percfemale is greater than or equal to 40 and "No" when percfemale is greater than 60 For conditions that don’t cover all observations, create a variable testcase2 that is "Yes" when percfemale is greater than or equal to 55 and "No" when percfemale is less than 35.

With one or two of the newly created variables from mutate(), create a plot that investigates a question of interest you might have about the data.

4.2 arrange() (Ordering Rows), select() (Choosing Columns), and slice() and filter() (Choosing Rows)

arrange() is used to order rows in the data set according to some variable, select() is used to choose columns to keep (or get rid of) and filter() is used to keep (or get rid of) only some of the observations (rows).

4.2.1 arrange(): Ordering Rows

The arrange() function allows us to order rows in the data set using one or more variables. The function is very straightforward. Suppose that we want to order the rows so that the majors with the lowest percfemale are first:

slumajors_df |> arrange(percfemale)
#> # A tibble: 27 × 7
#>    Major       nfema…¹ nmales percf…² ntotal morew…³ large…⁴
#>    <chr>         <dbl>  <dbl>   <dbl>  <dbl> <chr>   <chr>  
#>  1 Economics       128    349    26.8    477 No      male   
#>  2 Physics           6     14    30       20 No      male   
#>  3 Computer S…      21     47    30.9     68 No      none   
#>  4 Business i…     135    251    35.0    386 No      none   
#>  5 Music            13     21    38.2     34 No      none   
#>  6 Geology          28     41    40.6     69 No      none   
#>  7 History          62     82    43.1    144 No      none   
#>  8 Philosophy       24     29    45.3     53 No      none   
#>  9 Mathematics      74     83    47.1    157 No      none   
#> 10 Government      127    116    52.3    243 Yes     none   
#> # … with 17 more rows, and abbreviated variable names
#> #   ¹​nfemales, ²​percfemale, ³​morewomen, ⁴​large_majority
#> # ℹ Use `print(n = ...)` to see more rows

Which major has the lowest percentage of female graduates?

We see that, by default, arrange() orders the rows from low to high. To order from high to low so that the majors with the highest percfemale are first, use desc() around the variable that you are ordering by:

slumajors_df |> arrange(desc(percfemale))
#> # A tibble: 27 × 7
#>    Major       nfema…¹ nmales percf…² ntotal morew…³ large…⁴
#>    <chr>         <dbl>  <dbl>   <dbl>  <dbl> <chr>   <chr>  
#>  1 Art & Art …      65     11    85.5     76 Yes     female 
#>  2 Psychology      278     61    82.0    339 Yes     female 
#>  3 French           27      7    79.4     34 Yes     female 
#>  4 Spanish          35     10    77.8     45 Yes     female 
#>  5 Statistics       28      9    75.7     37 Yes     female 
#>  6 Global Stu…      69     27    71.9     96 Yes     female 
#>  7 Neuroscien…      61     24    71.8     85 Yes     female 
#>  8 Performanc…     144     57    71.6    201 Yes     female 
#>  9 Religious …      10      4    71.4     14 Yes     female 
#> 10 English         131     54    70.8    185 Yes     female 
#> # … with 17 more rows, and abbreviated variable names
#> #   ¹​nfemales, ²​percfemale, ³​morewomen, ⁴​large_majority
#> # ℹ Use `print(n = ...)` to see more rows

What is the major with the highest percentage of women graduates?

4.2.2 select() Choose Columns

We might also be interested in getting rid of some of the columns in a data set. One reason to do this is if there are an overwhelming (30+) columns in a data set, but we know that we just need a few of them. The easiest way to use select() is to just input the names of the columns that you want to keep. For example, if we were only interested in majors and their totals, we could do

slumajors_df |> select(Major, ntotal)
#> # A tibble: 27 × 2
#>    Major                        ntotal
#>    <chr>                         <dbl>
#>  1 Anthropology                     49
#>  2 Art & Art History                76
#>  3 Biochemistry                     25
#>  4 Biology                         229
#>  5 Business in the Liberal Arts    386
#>  6 Chemistry                        40
#>  7 Computer Science                 68
#>  8 Conservation Biology             58
#>  9 Economics                       477
#> 10 English                         185
#> # … with 17 more rows
#> # ℹ Use `print(n = ...)` to see more rows

If I wanted to use this data set for anything else, I’d also need to name, or rename, it with <-. We would probably want to name it something other than slumajors_df so as to not overwrite the original data set, in case we want to use those other variables again later!

We might also want to use select() to get rid of one or two columns. If this is the case, we denote any column you want to get rid of with -. For example, we might want to get rid of the ntotal column that we made and get rid of the nmales and nfemales columns:

slumajors_df |> select(-ntotal, -nfemales, -nmales)
#> # A tibble: 27 × 4
#>    Major                        percfemale morewomen large…¹
#>    <chr>                             <dbl> <chr>     <chr>  
#>  1 Anthropology                       69.4 Yes       none   
#>  2 Art & Art History                  85.5 Yes       female 
#>  3 Biochemistry                       56   Yes       none   
#>  4 Biology                            70.7 Yes       female 
#>  5 Business in the Liberal Arts       35.0 No        none   
#>  6 Chemistry                          65   Yes       none   
#>  7 Computer Science                   30.9 No        none   
#>  8 Conservation Biology               65.5 Yes       none   
#>  9 Economics                          26.8 No        male   
#> 10 English                            70.8 Yes       female 
#> # … with 17 more rows, and abbreviated variable name
#> #   ¹​large_majority
#> # ℹ Use `print(n = ...)` to see more rows

select() comes with many useful helper functions, but these are oftentimes not needed. One of the helper functions that is actually often useful is everything(). We can, for example, use this after using mutate() to put the variable that was just created at the front of the data set to make sure there weren’t any unexpected issues:

slumajors_df |> mutate(propfemale = percfemale / 100) |>
  select(propfemale, everything())
#> # A tibble: 27 × 8
#>    propfemale Major    nfema…¹ nmales percf…² ntotal morew…³
#>         <dbl> <chr>      <dbl>  <dbl>   <dbl>  <dbl> <chr>  
#>  1      0.694 Anthrop…      34     15    69.4     49 Yes    
#>  2      0.855 Art & A…      65     11    85.5     76 Yes    
#>  3      0.56  Biochem…      14     11    56       25 Yes    
#>  4      0.707 Biology      162     67    70.7    229 Yes    
#>  5      0.350 Busines…     135    251    35.0    386 No     
#>  6      0.65  Chemist…      26     14    65       40 Yes    
#>  7      0.309 Compute…      21     47    30.9     68 No     
#>  8      0.655 Conserv…      38     20    65.5     58 Yes    
#>  9      0.268 Economi…     128    349    26.8    477 No     
#> 10      0.708 English      131     54    70.8    185 Yes    
#> # … with 17 more rows, 1 more variable:
#> #   large_majority <chr>, and abbreviated variable names
#> #   ¹​nfemales, ²​percfemale, ³​morewomen
#> # ℹ Use `print(n = ...)` to see more rows, and `colnames()` to see all variable names
…
We can keep rows based on a categorical variable or a quantitative variable or a combination of any number of categorical and quantitative variables. R uses the following symbols to make comparisons. We’ve already been using the more intuitive symbols (like < and >):

< and <= for less than and less than or equal to, respectively

> and >= for greater than and greater than or equal to, respectively

== for equal to (careful: equal to is a double equal sign ==)

!= for not equal to (in general, ! denotes “not”)

It’s probably time for a change of data set too! We’ll be working with the babynames data set for the rest of this chapter:

library(babynames)
babynames
#> # A tibble: 1,924,665 × 5
#>     year sex   name          n   prop
#>    <dbl> <chr> <chr>     <int>  <dbl>
#>  1  1880 F     Mary       7065 0.0724
#>  2  1880 F     Anna       2604 0.0267
#>  3  1880 F     Emma       2003 0.0205
#>  4  1880 F     Elizabeth  1939 0.0199
#>  5  1880 F     Minnie     1746 0.0179
#>  6  1880 F     Margaret   1578 0.0162
#>  7  1880 F     Ida        1472 0.0151
#>  8  1880 F     Alice      1414 0.0145
#>  9  1880 F     Bertha     1320 0.0135
#> 10  1880 F     Sarah      1288 0.0132
#> # … with 1,924,655 more rows
#> # ℹ Use `print(n = ...)` to see more rows
…
4.3.1 group_by(): Groups

summarise() is often most useful when paired with a group_by() statement. Doing so allows us to get summaries across different groups.

For example, suppose that you wanted the total number of registered births per year in the babynames data set:

babynames |> group_by(year) |>
  summarise(totalbirths = sum(n))
#> # A tibble: 138 × 2
#>     year totalbirths
#>    <dbl>       <int>
#>  1  1880      201484
#>  2  1881      192696
#>  3  1882      221533
#>  4  1883      216946
#>  5  1884      243462
#>  6  1885      240854
#>  7  1886      255317
#>  8  1887      247394
#>  9  1888      299473
#> 10  1889      288946
#> # … with 128 more rows
#> # ℹ Use `print(n = ...)` to see more rows
…
Most summary functions are intuitive if you’ve had intro stat. But, if you’re not sure whether the summary for getting the maximum is maximum() or max(), just try both!

The n() function can be used within summarise() to obtain the number of observations. It will give you the total number of rows, if used without group_by()

babynames |> summarise(totalobs = n())
#> # A tibble: 1 × 1
#>   totalobs
#>      <int>
#> 1  1924665

Note that n() typically doesn’t have any inputs. It’s typically more useful when paired with group_by(): this allows us to see the number of observations within each year, for instance:

babynames |> group_by(year) |>
  summarise(ngroup = n())
#> # A tibble: 138 × 2
#>     year ngroup
#>    <dbl>  <int>
#>  1  1880   2000
#>  2  1881   1935
#>  3  1882   2127
#>  4  1883   2084
#>  5  1884   2297
#>  6  1885   2294
#>  7  1886   2392
#>  8  1887   2373
#>  9  1888   2651
#> 10  1889   2590
#> # … with 128 more rows
#> # ℹ Use `print(n = ...)` to see more rows
…
Compare summarise() with mutate() using the following code. What’s the difference between the two functions?

slumajors_df |>
  summarise(meantotalmajor = mean(ntotal),
            totalgrad = sum(ntotal)) 
slumajors_df |>
  mutate(meantotalmajor = mean(ntotal),
            totalgrad = sum(ntotal)) |>
  select(meantotalmajor, totalgrad, everything())

Using the data set from the group_by() and n() combination,

babynames |> group_by(year) |>
  summarise(ngroup = n())
#> # A tibble: 138 × 2
#>     year ngroup
#>    <dbl>  <int>
#>  1  1880   2000
#>  2  1881   1935
#>  3  1882   2127
#>  4  1883   2084
#>  5  1884   2297
#>  6  1885   2294
#>  7  1886   2392
#>  8  1887   2373
#>  9  1888   2651
#> 10  1889   2590
#> # … with 128 more rows
#> # ℹ Use `print(n = ...)` to see more rows
…
