9 Factors with forcats | STAT 234: Data Science
…
9.1.2 Collapsing Many Levels Into Fewer Levels with fct_collapse()

Sometimes, you might want to collapse the levels of two or more factors into a single level. With the Pokemon data set, there isn’t an example where this really makes sense, but, in the exercises, you’ll see a good use for this function with the social survey data set. For practice, we can collapse the Ice and Dark type Pokemon into a new level called Coolest and we can collapse the Poison, Fighting, and Fire type Pokemon into a new level called Least_Cool.

pokemon_long <- pokemon_df |> pivot_longer(c(`Type 1`, `Type 2`),
                            names_to = "Number",
                            values_to = "Type")
pokemon_long |>
  mutate(new_type = fct_collapse(Type, Coolest = c("Ice", "Dark"),
                                 Least_Cool = c("Fire", "Fighting", "Poison"))) |>
  select(new_type, Type, everything())
#> # A tibble: 1,894 × 22
#>    new_type   Type     `#` Name   Total    HP Attack Defense
#>    <fct>      <chr>  <dbl> <chr>  <dbl> <dbl>  <dbl>   <dbl>
#>  1 Grass      Grass      1 Bulba…   318    45     49      49
#>  2 Least_Cool Poison     1 Bulba…   318    45     49      49
#>  3 Grass      Grass      2 Ivysa…   405    60     62      63
#>  4 Least_Cool Poison     2 Ivysa…   405    60     62      63
#>  5 Grass      Grass      3 Venus…   525    80     82      83
#>  6 Least_Cool Poison     3 Venus…   525    80     82      83
#>  7 Grass      Grass      3 Venus…   525    80     82      83
#>  8 Least_Cool Poison     3 Venus…   525    80     82      83
#>  9 Least_Cool Fire       4 Charm…   309    39     52      43
#> 10 <NA>       <NA>       4 Charm…   309    39     52      43
#> # … with 1,884 more rows, and 14 more variables:
#> #   `Sp. Atk` <dbl>, `Sp. Def` <dbl>, Speed <dbl>,
#> #   Generation <dbl>, Legendary <lgl>, id <chr>,
#> #   identifier <chr>, height <dbl>, weight <dbl>,
#> #   base_experience <dbl>, order <dbl>, is_default <dbl>,
#> #   Generation_cat <fct>, Number <chr>
#> # ℹ Use `print(n = ...)` to see more rows, and `colnames()` to see all variable names
…
